sim_axi4_data_first_test.log
Command: /home/xingchangchang/ai_evaluation/claude_code/axi4_vip/ai_cc_glm5_axi4_vip/./simv_axi4_data_first_test +UVM_TESTNAME=axi4_data_first_test +UVM_VERBOSITY=UVM_MEDIUM -l sim_axi4_data_first_test.log +ntb_random_seed=1
Chronologic VCS simulator copyright 1991-2018
Contains Synopsys proprietary information.
Compiler version O-2018.09-SP2_Full64; Runtime version O-2018.09-SP2_Full64;  Apr  9 16:59 2026
UVM_INFO /home/xingchangchang/ProgramFiles/vcs_verdi2018/synopsys/vcs_201809/vcs/O-2018.09-SP2/etc/uvm-1.2/base/uvm_root.svh(402) @ 0: reporter [UVM/RELNOTES] 
----------------------------------------------------------------
UVM-1.2.Synopsys
(C) 2007-2014 Mentor Graphics Corporation
(C) 2007-2014 Cadence Design Systems, Inc.
(C) 2006-2014 Synopsys, Inc.
(C) 2011-2013 Cypress Semiconductor Corp.
(C) 2013-2014 NVIDIA Corporation
----------------------------------------------------------------

  ***********       IMPORTANT RELEASE NOTES         ************

  You are using a version of the UVM library that has been compiled
  with `UVM_NO_DEPRECATED undefined.
  See http://www.eda.org/svdb/view.php?id=3313 for more details.

  You are using a version of the UVM library that has been compiled
  with `UVM_OBJECT_DO_NOT_NEED_CONSTRUCTOR undefined.
  See http://www.eda.org/svdb/view.php?id=3770 for more details.

      (Specify +UVM_NO_RELNOTES to turn off this notice)

*Verdi* Loading libsscore_vcs201809.so
FSDB Dumper for VCS, Release Verdi_O-2018.09-SP2, Linux x86_64/64bit, 02/21/2019
(C) 1996 - 2019 by Synopsys, Inc.
*Verdi* FSDB WARNING: The FSDB file already exists. Overwriting the FSDB file may crash the programs that are using this file.
*Verdi* : Create FSDB file 'sim.fsdb'
*Verdi* : Begin traversing the scope (axi4_tb_top), layer (0).
*Verdi* : End of traversing.
UVM_INFO @ 0: reporter [RNTST] Running test axi4_data_first_test...
UVM_INFO sv/test_lib.sv(757) @ 0: uvm_test_top [axi4_data_first_test] Data-before-addr mode ENABLED with OSD=4
UVM_INFO sv/axi4_env.sv(58) @ 0: uvm_test_top.m_env [axi4_env] AXI4 VIP Topology:
UVM_INFO /home/xingchangchang/ProgramFiles/vcs_verdi2018/synopsys/vcs_201809/vcs/O-2018.09-SP2/etc/uvm-1.2/base/uvm_root.svh(589) @ 0: reporter [UVMTOP] UVM testbench topology:
--------------------------------------------------------------
Name                       Type                    Size  Value
--------------------------------------------------------------
uvm_test_top               axi4_data_first_test    -     @342 
  m_env                    axi4_env                -     @366 
    m_ap                   uvm_analysis_port       -     @387 
    m_master_agent         axi4_master_agent       -     @378 
      m_ap                 uvm_analysis_port       -     @584 
      m_driver             axi4_master_driver      -     @418 
        rsp_port           uvm_analysis_port       -     @437 
        seq_item_port      uvm_seq_item_pull_port  -     @427 
      m_monitor            axi4_monitor            -     @399 
        m_ap               uvm_analysis_port       -     @408 
      m_sequencer          axi4_sequencer          -     @447 
        rsp_export         uvm_analysis_export     -     @456 
        seq_item_export    uvm_seq_item_pull_imp   -     @574 
        arbitration_queue  array                   0     -    
        lock_queue         array                   0     -    
        num_last_reqs      integral                32    'd1  
        num_last_rsps      integral                32    'd1  
--------------------------------------------------------------

UVM_INFO sv/test_lib.sv(766) @ 0: uvm_test_top [axi4_data_first_test] ===========================================
UVM_INFO sv/test_lib.sv(767) @ 0: uvm_test_top [axi4_data_first_test]        AXI4 DATA FIRST TEST
UVM_INFO sv/test_lib.sv(768) @ 0: uvm_test_top [axi4_data_first_test] ===========================================
UVM_INFO sv/test_lib.sv(769) @ 0: uvm_test_top [axi4_data_first_test] Test Configuration:
UVM_INFO sv/test_lib.sv(770) @ 0: uvm_test_top [axi4_data_first_test]   - Burst Length: random [1:16] beats
UVM_INFO sv/test_lib.sv(771) @ 0: uvm_test_top [axi4_data_first_test]   - Transfer Size: 4 bytes (SIZE=2)
UVM_INFO sv/test_lib.sv(772) @ 0: uvm_test_top [axi4_data_first_test]   - Burst Type: INCR
UVM_INFO sv/test_lib.sv(773) @ 0: uvm_test_top [axi4_data_first_test]   - Start Address: 0x1000_0000 (aligned)
UVM_INFO sv/test_lib.sv(774) @ 0: uvm_test_top [axi4_data_first_test]   - Number of Transactions: 500
UVM_INFO sv/test_lib.sv(775) @ 0: uvm_test_top [axi4_data_first_test]   - Data Before Addr: ENABLED
UVM_INFO sv/test_lib.sv(776) @ 0: uvm_test_top [axi4_data_first_test]   - Data Before Addr OSD: 4
UVM_INFO sv/test_lib.sv(777) @ 0: uvm_test_top [axi4_data_first_test] ===========================================
UVM_INFO sv/seq_lib.sv(3347) @ 0: uvm_test_top.m_env.m_master_agent.m_sequencer@@seq [axi4_data_first_sequence] ===========================================
UVM_INFO sv/seq_lib.sv(3348) @ 0: uvm_test_top.m_env.m_master_agent.m_sequencer@@seq [axi4_data_first_sequence]        DATA FIRST TEST SEQUENCE
UVM_INFO sv/seq_lib.sv(3349) @ 0: uvm_test_top.m_env.m_master_agent.m_sequencer@@seq [axi4_data_first_sequence] ===========================================
UVM_INFO sv/seq_lib.sv(3350) @ 0: uvm_test_top.m_env.m_master_agent.m_sequencer@@seq [axi4_data_first_sequence] Test Configuration:
UVM_INFO sv/seq_lib.sv(3351) @ 0: uvm_test_top.m_env.m_master_agent.m_sequencer@@seq [axi4_data_first_sequence]   - Burst Length: random [1:16] beats
UVM_INFO sv/seq_lib.sv(3353) @ 0: uvm_test_top.m_env.m_master_agent.m_sequencer@@seq [axi4_data_first_sequence]   - Transfer Size: 4 bytes (SIZE=2)
UVM_INFO sv/seq_lib.sv(3355) @ 0: uvm_test_top.m_env.m_master_agent.m_sequencer@@seq [axi4_data_first_sequence]   - Burst Type: INCR
UVM_INFO sv/seq_lib.sv(3357) @ 0: uvm_test_top.m_env.m_master_agent.m_sequencer@@seq [axi4_data_first_sequence]   - Start Address: 0x10000000 (aligned)
UVM_INFO sv/seq_lib.sv(3359) @ 0: uvm_test_top.m_env.m_master_agent.m_sequencer@@seq [axi4_data_first_sequence]   - Number of Transactions: 500
UVM_INFO sv/seq_lib.sv(3361) @ 0: uvm_test_top.m_env.m_master_agent.m_sequencer@@seq [axi4_data_first_sequence]   - Data Before Addr: ENABLED
UVM_INFO sv/seq_lib.sv(3363) @ 0: uvm_test_top.m_env.m_master_agent.m_sequencer@@seq [axi4_data_first_sequence] ===========================================
UVM_INFO sv/seq_lib.sv(3368) @ 0: uvm_test_top.m_env.m_master_agent.m_sequencer@@seq [axi4_data_first_sequence] === Phase 1: Sending WRITE transactions ===
UVM_INFO sv/axi4_monitor.sv(286) @ 18000: uvm_test_top.m_env.m_master_agent.m_monitor [axi4_monitor] Write Complete: ID=2, ADDR=0x10000000, RESP=OKAY, Latency=1 cycles
UVM_INFO sv/axi4_monitor.sv(286) @ 29000: uvm_test_top.m_env.m_master_agent.m_monitor [axi4_monitor] Write Complete: ID=4, ADDR=0x10000004, RESP=OKAY, Latency=6 cycles
UVM_INFO sv/axi4_monitor.sv(286) @ 34000: uvm_test_top.m_env.m_master_agent.m_monitor [axi4_monitor] Write Complete: ID=0, ADDR=0x1000001c, RESP=OKAY, Latency=4 cycles
UVM_INFO sv/axi4_monitor.sv(286) @ 50000: uvm_test_top.m_env.m_master_agent.m_monitor [axi4_monitor] Write Complete: ID=12, ADDR=0x1000002c, RESP=OKAY, Latency=14 cycles
UVM_INFO sv/axi4_monitor.sv(286) @ 60000: uvm_test_top.m_env.m_master_agent.m_monitor [axi4_monitor] Write Complete: ID=3, ADDR=0x10000064, RESP=OKAY, Latency=9 cycles
UVM_INFO sv/axi4_monitor.sv(286) @ 66000: uvm_test_top.m_env.m_master_agent.m_monitor [axi4_monitor] Write Complete: ID=11, ADDR=0x10000088, RESP=OKAY, Latency=5 cycles
UVM_INFO sv/axi4_monitor.sv(286) @ 71000: uvm_test_top.m_env.m_master_agent.m_monitor [axi4_monitor] Write Complete: ID=8, ADDR=0x1000009c, RESP=OKAY, Latency=4 cycles
UVM_INFO sv/axi4_monitor.sv(286) @ 88000: uvm_test_top.m_env.m_master_agent.m_monitor [axi4_monitor] Write Complete: ID=10, ADDR=0x100000ac, RESP=OKAY, Latency=15 cycles
UVM_INFO sv/axi4_monitor.sv(286) @ 105000: uvm_test_top.m_env.m_master_agent.m_monitor [axi4_monitor] Write Complete: ID=1, ADDR=0x100000e8, RESP=OKAY, Latency=16 cycles
UVM_INFO sv/axi4_monitor.sv(286) @ 120000: uvm_test_top.m_env.m_master_agent.m_monitor [axi4_monitor] Write Complete: ID=2, ADDR=0x10000128, RESP=OKAY, Latency=14 cycles
UVM_INFO sv/axi4_monitor.sv(286) @ 122000: uvm_test_top.m_env.m_master_agent.m_monitor [axi4_monitor] Write Complete: ID=12, ADDR=0x10000160, RESP=OKAY, Latency=1 cycles
UVM_INFO sv/axi4_monitor.sv(286) @ 143000: uvm_test_top.m_env.m_master_agent.m_monitor [axi4_monitor] Write Complete: ID=3, ADDR=0x10000164, RESP=OKAY, Latency=16 cycles
UVM_INFO sv/axi4_monitor.sv(286) @ 151000: uvm_test_top.m_env.m_master_agent.m_monitor [axi4_monitor] Write Complete: ID=13, ADDR=0x100001a4, RESP=OKAY, Latency=7 cycles
UVM_INFO sv/axi4_monitor.sv(286) @ 168000: uvm_test_top.m_env.m_master_agent.m_monitor [axi4_monitor] Write Complete: ID=0, ADDR=0x100001c0, RESP=OKAY, Latency=16 cycles
UVM_INFO sv/axi4_monitor.sv(286) @ 182000: uvm_test_top.m_env.m_master_agent.m_monitor [axi4_monitor] Write Complete: ID=6, ADDR=0x10000200, RESP=OKAY, Latency=13 cycles
UVM_INFO sv/axi4_monitor.sv(286) @ 190000: uvm_test_top.m_env.m_master_agent.m_monitor [axi4_monitor] Write Complete: ID=9, ADDR=0x10000234, RESP=OKAY, Latency=7 cycles
UVM_INFO sv/axi4_monitor.sv(286) @ 197000: uvm_test_top.m_env.m_master_agent.m_monitor [axi4_monitor] Write Complete: ID=2, ADDR=0x10000250, RESP=OKAY, Latency=6 cycles
UVM_INFO sv/axi4_monitor.sv(286) @ 204000: uvm_test_top.m_env.m_master_agent.m_monitor [axi4_monitor] Write Complete: ID=11, ADDR=0x10000268, RESP=OKAY, Latency=6 cycles
UVM_INFO sv/axi4_monitor.sv(286) @ 219000: uvm_test_top.m_env.m_master_agent.m_monitor [axi4_monitor] Write Complete: ID=6, ADDR=0x10000280, RESP=OKAY, Latency=14 cycles
UVM_INFO sv/axi4_monitor.sv(286) @ 224000: uvm_test_top.m_env.m_master_agent.m_monitor [axi4_monitor] Write Complete: ID=14, ADDR=0x100002b8, RESP=OKAY, Latency=4 cycles
UVM_INFO sv/axi4_monitor.sv(286) @ 228000: uvm_test_top.m_env.m_master_agent.m_monitor [axi4_monitor] Write Complete: ID=5, ADDR=0x100002c8, RESP=OKAY, Latency=2 cycles
UVM_INFO sv/axi4_monitor.sv(286) @ 243000: uvm_test_top.m_env.m_master_agent.m_monitor [axi4_monitor] Write Complete: ID=7, ADDR=0x100002d0, RESP=OKAY, Latency=11 cycles
UVM_INFO sv/axi4_monitor.sv(286) @ 253000: uvm_test_top.m_env.m_master_agent.m_monitor [axi4_monitor] Write Complete: ID=14, ADDR=0x100002fc, RESP=OKAY, Latency=9 cycles
UVM_INFO sv/axi4_monitor.sv(286) @ 256000: uvm_test_top.m_env.m_master_agent.m_monitor [axi4_monitor] Write Complete: ID=14, ADDR=0x10000320, RESP=OKAY, Latency=2 cycles
UVM_INFO sv/axi4_monitor.sv(286) @ 271000: uvm_test_top.m_env.m_master_agent.m_monitor [axi4_monitor] Write Complete: ID=2, ADDR=0x10000328, RESP=OKAY, Latency=11 cycles
UVM_INFO sv/axi4_monitor.sv(286) @ 287000: uvm_test_top.m_env.m_master_agent.m_monitor [axi4_monitor] Write Complete: ID=2, ADDR=0x10000354, RESP=OKAY, Latency=15 cycles
UVM_INFO sv/axi4_monitor.sv(286) @ 290000: uvm_test_top.m_env.m_master_agent.m_monitor [axi4_monitor] Write Complete: ID=0, ADDR=0x10000390, RESP=OKAY, Latency=2 cycles
UVM_INFO sv/axi4_monitor.sv(286) @ 298000: uvm_test_top.m_env.m_master_agent.m_monitor [axi4_monitor] Write Complete: ID=9, ADDR=0x10000398, RESP=OKAY, Latency=4 cycles
UVM_INFO sv/axi4_monitor.sv(286) @ 303000: uvm_test_top.m_env.m_master_agent.m_monitor [axi4_monitor] Write Complete: ID=2, ADDR=0x100003a8, RESP=OKAY, Latency=3 cycles
UVM_INFO sv/axi4_monitor.sv(286) @ 322000: uvm_test_top.m_env.m_master_agent.m_monitor [axi4_monitor] Write Complete: ID=1, ADDR=0x100003b4, RESP=OKAY, Latency=16 cycles
UVM_INFO sv/axi4_monitor.sv(286) @ 327000: uvm_test_top.m_env.m_master_agent.m_monitor [axi4_monitor] Write Complete: ID=13, ADDR=0x100003f4, RESP=OKAY, Latency=4 cycles
UVM_INFO sv/axi4_monitor.sv(286) @ 336000: uvm_test_top.m_env.m_master_agent.m_monitor [axi4_monitor] Write Complete: ID=15, ADDR=0x10000404, RESP=OKAY, Latency=7 cycles
UVM_INFO sv/axi4_monitor.sv(286) @ 349000: uvm_test_top.m_env.m_master_agent.m_monitor [axi4_monitor] Write Complete: ID=1, ADDR=0x10000420, RESP=OKAY, Latency=12 cycles
UVM_INFO sv/axi4_monitor.sv(286) @ 358000: uvm_test_top.m_env.m_master_agent.m_monitor [axi4_monitor] Write Complete: ID=3, ADDR=0x10000450, RESP=OKAY, Latency=8 cycles
UVM_INFO sv/axi4_monitor.sv(286) @ 361000: uvm_test_top.m_env.m_master_agent.m_monitor [axi4_monitor] Write Complete: ID=13, ADDR=0x10000470, RESP=OKAY, Latency=2 cycles
UVM_INFO sv/axi4_monitor.sv(286) @ 368000: uvm_test_top.m_env.m_master_agent.m_monitor [axi4_monitor] Write Complete: ID=0, ADDR=0x10000478, RESP=OKAY, Latency=3 cycles
UVM_INFO sv/axi4_monitor.sv(286) @ 380000: uvm_test_top.m_env.m_master_agent.m_monitor [axi4_monitor] Write Complete: ID=4, ADDR=0x10000484, RESP=OKAY, Latency=9 cycles
UVM_INFO sv/axi4_monitor.sv(286) @ 386000: uvm_test_top.m_env.m_master_agent.m_monitor [axi4_monitor] Write Complete: ID=7, ADDR=0x100004a8, RESP=OKAY, Latency=5 cycles
UVM_INFO sv/axi4_monitor.sv(286) @ 392000: uvm_test_top.m_env.m_master_agent.m_monitor [axi4_monitor] Write Complete: ID=0, ADDR=0x100004bc, RESP=OKAY, Latency=5 cycles
UVM_INFO sv/axi4_monitor.sv(286) @ 399000: uvm_test_top.m_env.m_master_agent.m_monitor [axi4_monitor] Write Complete: ID=5, ADDR=0x100004d0, RESP=OKAY, Latency=6 cycles
UVM_INFO sv/axi4_monitor.sv(286) @ 404000: uvm_test_top.m_env.m_master_agent.m_monitor [axi4_monitor] Write Complete: ID=7, ADDR=0x100004e8, RESP=OKAY, Latency=4 cycles
UVM_INFO sv/axi4_monitor.sv(286) @ 418000: uvm_test_top.m_env.m_master_agent.m_monitor [axi4_monitor] Write Complete: ID=10, ADDR=0x100004f8, RESP=OKAY, Latency=12 cycles
UVM_INFO sv/axi4_monitor.sv(286) @ 423000: uvm_test_top.m_env.m_master_agent.m_monitor [axi4_monitor] Write Complete: ID=5, ADDR=0x10000528, RESP=OKAY, Latency=4 cycles
UVM_INFO sv/axi4_monitor.sv(286) @ 429000: uvm_test_top.m_env.m_master_agent.m_monitor [axi4_monitor] Write Complete: ID=13, ADDR=0x10000538, RESP=OKAY, Latency=4 cycles
UVM_INFO sv/axi4_monitor.sv(286) @ 439000: uvm_test_top.m_env.m_master_agent.m_monitor [axi4_monitor] Write Complete: ID=1, ADDR=0x10000548, RESP=OKAY, Latency=8 cycles
UVM_INFO sv/axi4_monitor.sv(286) @ 444000: uvm_test_top.m_env.m_master_agent.m_monitor [axi4_monitor] Write Complete: ID=7, ADDR=0x10000568, RESP=OKAY, Latency=4 cycles
UVM_INFO sv/axi4_monitor.sv(286) @ 458000: uvm_test_top.m_env.m_master_agent.m_monitor [axi4_monitor] Write Complete: ID=10, ADDR=0x10000578, RESP=OKAY, Latency=12 cycles
UVM_INFO sv/axi4_monitor.sv(286) @ 473000: uvm_test_top.m_env.m_master_agent.m_monitor [axi4_monitor] Write Complete: ID=0, ADDR=0x100005a8, RESP=OKAY, Latency=14 cycles
UVM_INFO sv/axi4_monitor.sv(286) @ 476000: uvm_test_top.m_env.m_master_agent.m_monitor [axi4_monitor] Write Complete: ID=13, ADDR=0x100005e0, RESP=OKAY, Latency=2 cycles
UVM_INFO sv/axi4_monitor.sv(286) @ 492000: uvm_test_top.m_env.m_master_agent.m_monitor [axi4_monitor] Write Complete: ID=7, ADDR=0x100005e8, RESP=OKAY, Latency=12 cycles
UVM_INFO sv/axi4_monitor.sv(286) @ 501000: uvm_test_top.m_env.m_master_agent.m_monitor [axi4_monitor] Write Complete: ID=10, ADDR=0x10000618, RESP=OKAY, Latency=8 cycles
UVM_INFO sv/axi4_monitor.sv(286) @ 506000: uvm_test_top.m_env.m_master_agent.m_monitor [axi4_monitor] Write Complete: ID=7, ADDR=0x10000638, RESP=OKAY, Latency=4 cycles
UVM_INFO sv/axi4_monitor.sv(286) @ 524000: uvm_test_top.m_env.m_master_agent.m_monitor [axi4_monitor] Write Complete: ID=15, ADDR=0x10000648, RESP=OKAY, Latency=16 cycles
UVM_INFO sv/axi4_monitor.sv(286) @ 537000: uvm_test_top.m_env.m_master_agent.m_monitor [axi4_monitor] Write Complete: ID=1, ADDR=0x10000688, RESP=OKAY, Latency=12 cycles
UVM_INFO sv/axi4_monitor.sv(286) @ 544000: uvm_test_top.m_env.m_master_agent.m_monitor [axi4_monitor] Write Complete: ID=3, ADDR=0x100006b8, RESP=OKAY, Latency=6 cycles
UVM_INFO sv/axi4_monitor.sv(286) @ 556000: uvm_test_top.m_env.m_master_agent.m_monitor [axi4_monitor] Write Complete: ID=5, ADDR=0x100006d0, RESP=OKAY, Latency=11 cycles
UVM_INFO sv/axi4_monitor.sv(286) @ 572000: uvm_test_top.m_env.m_master_agent.m_monitor [axi4_monitor] Write Complete: ID=11, ADDR=0x100006fc, RESP=OKAY, Latency=15 cycles
UVM_INFO sv/axi4_monitor.sv(286) @ 587000: uvm_test_top.m_env.m_master_agent.m_monitor [axi4_monitor] Write Complete: ID=8, ADDR=0x10000738, RESP=OKAY, Latency=14 cycles
UVM_INFO sv/axi4_monitor.sv(286) @ 591000: uvm_test_top.m_env.m_master_agent.m_monitor [axi4_monitor] Write Complete: ID=1, ADDR=0x10000770, RESP=OKAY, Latency=3 cycles
UVM_INFO sv/axi4_monitor.sv(286) @ 609000: uvm_test_top.m_env.m_master_agent.m_monitor [axi4_monitor] Write Complete: ID=10, ADDR=0x1000077c, RESP=OKAY, Latency=15 cycles
UVM_INFO sv/axi4_monitor.sv(286) @ 617000: uvm_test_top.m_env.m_master_agent.m_monitor [axi4_monitor] Write Complete: ID=6, ADDR=0x100007b8, RESP=OKAY, Latency=7 cycles
UVM_INFO sv/axi4_monitor.sv(286) @ 629000: uvm_test_top.m_env.m_master_agent.m_monitor [axi4_monitor] Write Complete: ID=1, ADDR=0x100007d4, RESP=OKAY, Latency=11 cycles
UVM_INFO sv/axi4_monitor.sv(286) @ 633000: uvm_test_top.m_env.m_master_agent.m_monitor [axi4_monitor] Write Complete: ID=4, ADDR=0x10000800, RESP=OKAY, Latency=3 cycles
UVM_INFO sv/axi4_monitor.sv(286) @ 639000: uvm_test_top.m_env.m_master_agent.m_monitor [axi4_monitor] Write Complete: ID=14, ADDR=0x1000080c, RESP=OKAY, Latency=3 cycles
UVM_INFO sv/axi4_monitor.sv(286) @ 655000: uvm_test_top.m_env.m_master_agent.m_monitor [axi4_monitor] Write Complete: ID=11, ADDR=0x10000818, RESP=OKAY, Latency=13 cycles
UVM_INFO sv/axi4_monitor.sv(286) @ 659000: uvm_test_top.m_env.m_master_agent.m_monitor [axi4_monitor] Write Complete: ID=1, ADDR=0x1000084c, RESP=OKAY, Latency=3 cycles
UVM_INFO sv/axi4_monitor.sv(286) @ 670000: uvm_test_top.m_env.m_master_agent.m_monitor [axi4_monitor] Write Complete: ID=8, ADDR=0x10000858, RESP=OKAY, Latency=8 cycles
UVM_INFO sv/axi4_monitor.sv(286) @ 676000: uvm_test_top.m_env.m_master_agent.m_monitor [axi4_monitor] Write Complete: ID=6, ADDR=0x10000878, RESP=OKAY, Latency=5 cycles
UVM_INFO sv/axi4_monitor.sv(286) @ 679000: uvm_test_top.m_env.m_master_agent.m_monitor [axi4_monitor] Write Complete: ID=1, ADDR=0x1000088c, RESP=OKAY, Latency=2 cycles
UVM_INFO sv/axi4_monitor.sv(286) @ 695000: uvm_test_top.m_env.m_master_agent.m_monitor [axi4_monitor] Write Complete: ID=11, ADDR=0x10000894, RESP=OKAY, Latency=12 cycles
UVM_INFO sv/axi4_monitor.sv(286) @ 708000: uvm_test_top.m_env.m_master_agent.m_monitor [axi4_monitor] Write Complete: ID=8, ADDR=0x100008c4, RESP=OKAY, Latency=12 cycles
UVM_INFO sv/axi4_monitor.sv(286) @ 714000: uvm_test_top.m_env.m_master_agent.m_monitor [axi4_monitor] Write Complete: ID=8, ADDR=0x100008f4, RESP=OKAY, Latency=5 cycles
UVM_INFO sv/axi4_monitor.sv(286) @ 720000: uvm_test_top.m_env.m_master_agent.m_monitor [axi4_monitor] Write Complete: ID=4, ADDR=0x10000908, RESP=OKAY, Latency=5 cycles
UVM_INFO sv/axi4_monitor.sv(286) @ 724000: uvm_test_top.m_env.m_master_agent.m_monitor [axi4_monitor] Write Complete: ID=4, ADDR=0x1000091c, RESP=OKAY, Latency=3 cycles
UVM_INFO sv/axi4_monitor.sv(286) @ 733000: uvm_test_top.m_env.m_master_agent.m_monitor [axi4_monitor] Write Complete: ID=2, ADDR=0x10000928, RESP=OKAY, Latency=6 cycles
UVM_INFO sv/axi4_monitor.sv(286) @ 736000: uvm_test_top.m_env.m_master_agent.m_monitor [axi4_monitor] Write Complete: ID=14, ADDR=0x10000940, RESP=OKAY, Latency=2 cycles
UVM_INFO sv/axi4_monitor.sv(286) @ 744000: uvm_test_top.m_env.m_master_agent.m_monitor [axi4_monitor] Write Complete: ID=12, ADDR=0x10000948, RESP=OKAY, Latency=4 cycles
UVM_INFO sv/axi4_monitor.sv(286) @ 755000: uvm_test_top.m_env.m_master_agent.m_monitor [axi4_monitor] Write Complete: ID=11, ADDR=0x10000958, RESP=OKAY, Latency=9 cycles
UVM_INFO sv/axi4_monitor.sv(286) @ 761000: uvm_test_top.m_env.m_master_agent.m_monitor [axi4_monitor] Write Complete: ID=13, ADDR=0x1000097c, RESP=OKAY, Latency=5 cycles
UVM_INFO sv/axi4_monitor.sv(286) @ 767000: uvm_test_top.m_env.m_master_agent.m_monitor [axi4_monitor] Write Complete: ID=10, ADDR=0x10000990, RESP=OKAY, Latency=5 cycles
UVM_INFO sv/axi4_monitor.sv(286) @ 770000: uvm_test_top.m_env.m_master_agent.m_monitor [axi4_monitor] Write Complete: ID=2, ADDR=0x100009a4, RESP=OKAY, Latency=2 cycles
UVM_INFO sv/axi4_monitor.sv(286) @ 785000: uvm_test_top.m_env.m_master_agent.m_monitor [axi4_monitor] Write Complete: ID=9, ADDR=0x100009ac, RESP=OKAY, Latency=11 cycles
UVM_INFO sv/axi4_monitor.sv(286) @ 793000: uvm_test_top.m_env.m_master_agent.m_monitor [axi4_monitor] Write Complete: ID=6, ADDR=0x100009d8, RESP=OKAY, Latency=7 cycles
UVM_INFO sv/axi4_monitor.sv(286) @ 795000: uvm_test_top.m_env.m_master_agent.m_monitor [axi4_monitor] Write Complete: ID=12, ADDR=0x100009f4, RESP=OKAY, Latency=1 cycles
UVM_INFO sv/axi4_monitor.sv(286) @ 816000: uvm_test_top.m_env.m_master_agent.m_monitor [axi4_monitor] Write Complete: ID=13, ADDR=0x100009f8, RESP=OKAY, Latency=16 cycles
UVM_INFO sv/axi4_monitor.sv(286) @ 829000: uvm_test_top.m_env.m_master_agent.m_monitor [axi4_monitor] Write Complete: ID=7, ADDR=0x10000a38, RESP=OKAY, Latency=12 cycles
UVM_INFO sv/axi4_monitor.sv(286) @ 841000: uvm_test_top.m_env.m_master_agent.m_monitor [axi4_monitor] Write Complete: ID=3, ADDR=0x10000a68, RESP=OKAY, Latency=11 cycles
UVM_INFO sv/axi4_monitor.sv(286) @ 854000: uvm_test_top.m_env.m_master_agent.m_monitor [axi4_monitor] Write Complete: ID=6, ADDR=0x10000a94, RESP=OKAY, Latency=12 cycles
UVM_INFO sv/axi4_monitor.sv(286) @ 859000: uvm_test_top.m_env.m_master_agent.m_monitor [axi4_monitor] Write Complete: ID=14, ADDR=0x10000ac4, RESP=OKAY, Latency=4 cycles
UVM_INFO sv/axi4_monitor.sv(286) @ 867000: uvm_test_top.m_env.m_master_agent.m_monitor [axi4_monitor] Write Complete: ID=10, ADDR=0x10000ad4, RESP=OKAY, Latency=6 cycles
UVM_INFO sv/axi4_monitor.sv(286) @ 873000: uvm_test_top.m_env.m_master_agent.m_monitor [axi4_monitor] Write Complete: ID=1, ADDR=0x10000aec, RESP=OKAY, Latency=5 cycles
UVM_INFO sv/axi4_monitor.sv(286) @ 877000: uvm_test_top.m_env.m_master_agent.m_monitor [axi4_monitor] Write Complete: ID=9, ADDR=0x10000b00, RESP=OKAY, Latency=3 cycles
UVM_INFO sv/axi4_monitor.sv(286) @ 892000: uvm_test_top.m_env.m_master_agent.m_monitor [axi4_monitor] Write Complete: ID=8, ADDR=0x10000b0c, RESP=OKAY, Latency=12 cycles
UVM_INFO sv/axi4_monitor.sv(286) @ 897000: uvm_test_top.m_env.m_master_agent.m_monitor [axi4_monitor] Write Complete: ID=12, ADDR=0x10000b3c, RESP=OKAY, Latency=4 cycles
UVM_INFO sv/axi4_monitor.sv(286) @ 912000: uvm_test_top.m_env.m_master_agent.m_monitor [axi4_monitor] Write Complete: ID=6, ADDR=0x10000b4c, RESP=OKAY, Latency=13 cycles
UVM_INFO sv/axi4_monitor.sv(286) @ 919000: uvm_test_top.m_env.m_master_agent.m_monitor [axi4_monitor] Write Complete: ID=8, ADDR=0x10000b80, RESP=OKAY, Latency=6 cycles
UVM_INFO sv/axi4_monitor.sv(286) @ 936000: uvm_test_top.m_env.m_master_agent.m_monitor [axi4_monitor] Write Complete: ID=7, ADDR=0x10000b98, RESP=OKAY, Latency=16 cycles
UVM_INFO sv/axi4_monitor.sv(286) @ 945000: uvm_test_top.m_env.m_master_agent.m_monitor [axi4_monitor] Write Complete: ID=6, ADDR=0x10000bd8, RESP=OKAY, Latency=8 cycles
UVM_INFO sv/axi4_monitor.sv(286) @ 956000: uvm_test_top.m_env.m_master_agent.m_monitor [axi4_monitor] Write Complete: ID=4, ADDR=0x10000bf8, RESP=OKAY, Latency=10 cycles
UVM_INFO sv/seq_lib.sv(3411) @ 956000: uvm_test_top.m_env.m_master_agent.m_sequencer@@seq [axi4_data_first_sequence] Write progress: 100/500 transactions
UVM_INFO sv/axi4_monitor.sv(286) @ 961000: uvm_test_top.m_env.m_master_agent.m_monitor [axi4_monitor] Write Complete: ID=3, ADDR=0x10000c20, RESP=OKAY, Latency=4 cycles
UVM_INFO sv/axi4_monitor.sv(286) @ 977000: uvm_test_top.m_env.m_master_agent.m_monitor [axi4_monitor] Write Complete: ID=12, ADDR=0x10000c30, RESP=OKAY, Latency=14 cycles
UVM_INFO sv/axi4_monitor.sv(286) @ 981000: uvm_test_top.m_env.m_master_agent.m_monitor [axi4_monitor] Write Complete: ID=10, ADDR=0x10000c68, RESP=OKAY, Latency=3 cycles
UVM_INFO sv/axi4_monitor.sv(286) @ 996000: uvm_test_top.m_env.m_master_agent.m_monitor [axi4_monitor] Write Complete: ID=11, ADDR=0x10000c74, RESP=OKAY, Latency=12 cycles
UVM_INFO sv/axi4_monitor.sv(286) @ 1002000: uvm_test_top.m_env.m_master_agent.m_monitor [axi4_monitor] Write Complete: ID=0, ADDR=0x10000ca4, RESP=OKAY, Latency=5 cycles
UVM_INFO sv/axi4_monitor.sv(286) @ 1004000: uvm_test_top.m_env.m_master_agent.m_monitor [axi4_monitor] Write Complete: ID=13, ADDR=0x10000cb8, RESP=OKAY, Latency=1 cycles
UVM_INFO sv/axi4_monitor.sv(286) @ 1021000: uvm_test_top.m_env.m_master_agent.m_monitor [axi4_monitor] Write Complete: ID=10, ADDR=0x10000cbc, RESP=OKAY, Latency=12 cycles
UVM_INFO sv/axi4_monitor.sv(286) @ 1032000: uvm_test_top.m_env.m_master_agent.m_monitor [axi4_monitor] Write Complete: ID=15, ADDR=0x10000cec, RESP=OKAY, Latency=10 cycles
UVM_INFO sv/axi4_monitor.sv(286) @ 1049000: uvm_test_top.m_env.m_master_agent.m_monitor [axi4_monitor] Write Complete: ID=14, ADDR=0x10000d14, RESP=OKAY, Latency=16 cycles
UVM_INFO sv/axi4_monitor.sv(286) @ 1063000: uvm_test_top.m_env.m_master_agent.m_monitor [axi4_monitor] Write Complete: ID=3, ADDR=0x10000d54, RESP=OKAY, Latency=13 cycles
UVM_INFO sv/axi4_monitor.sv(286) @ 1080000: uvm_test_top.m_env.m_master_agent.m_monitor [axi4_monitor] Write Complete: ID=10, ADDR=0x10000d88, RESP=OKAY, Latency=16 cycles
UVM_INFO sv/axi4_monitor.sv(286) @ 1096000: uvm_test_top.m_env.m_master_agent.m_monitor [axi4_monitor] Write Complete: ID=15, ADDR=0x10000dc8, RESP=OKAY, Latency=15 cycles
UVM_INFO sv/axi4_monitor.sv(286) @ 1106000: uvm_test_top.m_env.m_master_agent.m_monitor [axi4_monitor] Write Complete: ID=15, ADDR=0x10000e04, RESP=OKAY, Latency=9 cycles
