sim_axi4_long_time_test.log
Command: /home/xingchangchang/ai_evaluation/claude_code/axi4_vip/ai_cc_glm5_axi4_vip/./simv_axi4_long_time_test +UVM_TESTNAME=axi4_long_time_test +UVM_VERBOSITY=UVM_MEDIUM -l sim_axi4_long_time_test.log +ntb_random_seed=1
Chronologic VCS simulator copyright 1991-2018
Contains Synopsys proprietary information.
Compiler version O-2018.09-SP2_Full64; Runtime version O-2018.09-SP2_Full64;  Apr 10 09:08 2026
UVM_INFO /home/xingchangchang/ProgramFiles/vcs_verdi2018/synopsys/vcs_201809/vcs/O-2018.09-SP2/etc/uvm-1.2/base/uvm_root.svh(402) @ 0: reporter [UVM/RELNOTES] 
----------------------------------------------------------------
UVM-1.2.Synopsys
(C) 2007-2014 Mentor Graphics Corporation
(C) 2007-2014 Cadence Design Systems, Inc.
(C) 2006-2014 Synopsys, Inc.
(C) 2011-2013 Cypress Semiconductor Corp.
(C) 2013-2014 NVIDIA Corporation
----------------------------------------------------------------

  ***********       IMPORTANT RELEASE NOTES         ************

  You are using a version of the UVM library that has been compiled
  with `UVM_NO_DEPRECATED undefined.
  See http://www.eda.org/svdb/view.php?id=3313 for more details.

  You are using a version of the UVM library that has been compiled
  with `UVM_OBJECT_DO_NOT_NEED_CONSTRUCTOR undefined.
  See http://www.eda.org/svdb/view.php?id=3770 for more details.

      (Specify +UVM_NO_RELNOTES to turn off this notice)

*Verdi* Loading libsscore_vcs201809.so
FSDB Dumper for VCS, Release Verdi_O-2018.09-SP2, Linux x86_64/64bit, 02/21/2019
(C) 1996 - 2019 by Synopsys, Inc.
*Verdi* FSDB WARNING: The FSDB file already exists. Overwriting the FSDB file may crash the programs that are using this file.
*Verdi* : Create FSDB file 'sim.fsdb'
*Verdi* : Begin traversing the scope (axi4_tb_top), layer (0).
*Verdi* : End of traversing.
UVM_INFO @ 0: reporter [RNTST] Running test axi4_long_time_test...
UVM_INFO sv/test_lib.sv(839) @ 0: uvm_test_top [axi4_long_time_test] Timeout configuration: WTIMEOUT=10000, RTIMEOUT=10000 cycles
UVM_INFO sv/axi4_env.sv(58) @ 0: uvm_test_top.m_env [axi4_env] AXI4 VIP Topology:
UVM_INFO /home/xingchangchang/ProgramFiles/vcs_verdi2018/synopsys/vcs_201809/vcs/O-2018.09-SP2/etc/uvm-1.2/base/uvm_root.svh(589) @ 0: reporter [UVMTOP] UVM testbench topology:
--------------------------------------------------------------
Name                       Type                    Size  Value
--------------------------------------------------------------
uvm_test_top               axi4_long_time_test     -     @342 
  m_env                    axi4_env                -     @366 
    m_ap                   uvm_analysis_port       -     @387 
    m_master_agent         axi4_master_agent       -     @378 
      m_ap                 uvm_analysis_port       -     @584 
      m_driver             axi4_master_driver      -     @418 
        rsp_port           uvm_analysis_port       -     @437 
        seq_item_port      uvm_seq_item_pull_port  -     @427 
      m_monitor            axi4_monitor            -     @399 
        m_ap               uvm_analysis_port       -     @408 
      m_sequencer          axi4_sequencer          -     @447 
        rsp_export         uvm_analysis_export     -     @456 
        seq_item_export    uvm_seq_item_pull_imp   -     @574 
        arbitration_queue  array                   0     -    
        lock_queue         array                   0     -    
        num_last_reqs      integral                32    'd1  
        num_last_rsps      integral                32    'd1  
--------------------------------------------------------------

UVM_INFO sv/test_lib.sv(848) @ 0: uvm_test_top [axi4_long_time_test] ===========================================
UVM_INFO sv/test_lib.sv(849) @ 0: uvm_test_top [axi4_long_time_test]        AXI4 LONG TIME TEST
UVM_INFO sv/test_lib.sv(850) @ 0: uvm_test_top [axi4_long_time_test] ===========================================
UVM_INFO sv/test_lib.sv(851) @ 0: uvm_test_top [axi4_long_time_test] Test Configuration:
UVM_INFO sv/test_lib.sv(852) @ 0: uvm_test_top [axi4_long_time_test]   - Burst Length: random [1:16] beats (LEN=0~15)
UVM_INFO sv/test_lib.sv(853) @ 0: uvm_test_top [axi4_long_time_test]   - Transfer Size: 4 bytes (SIZE=2)
UVM_INFO sv/test_lib.sv(854) @ 0: uvm_test_top [axi4_long_time_test]   - Burst Type: INCR
UVM_INFO sv/test_lib.sv(855) @ 0: uvm_test_top [axi4_long_time_test]   - Start Address: 0x1000_0000 (aligned)
UVM_INFO sv/test_lib.sv(856) @ 0: uvm_test_top [axi4_long_time_test]   - Number of Transactions: 500
UVM_INFO sv/test_lib.sv(857) @ 0: uvm_test_top [axi4_long_time_test]   - Write Timeout: 10000 cycles
UVM_INFO sv/test_lib.sv(858) @ 0: uvm_test_top [axi4_long_time_test]   - Read Timeout: 10000 cycles
UVM_INFO sv/test_lib.sv(859) @ 0: uvm_test_top [axi4_long_time_test] ===========================================
UVM_INFO sv/seq_lib.sv(3570) @ 0: uvm_test_top.m_env.m_master_agent.m_sequencer@@seq [axi4_long_time_sequence] Starting long time test sequence: 500 transactions, LEN=random[0:15], SIZE=2, ADDR=0x10000000
UVM_INFO sv/seq_lib.sv(3577) @ 0: uvm_test_top.m_env.m_master_agent.m_sequencer@@seq [axi4_long_time_sequence] === Phase 1: Sending back-to-back WRITE transactions ===
UVM_INFO sv/axi4_monitor.sv(296) @ 15000: uvm_test_top.m_env.m_master_agent.m_monitor [axi4_monitor] Write Complete: ID=2, ADDR=0x10000000, RESP=OKAY, Latency=2 cycles
UVM_INFO sv/axi4_monitor.sv(296) @ 23000: uvm_test_top.m_env.m_master_agent.m_monitor [axi4_monitor] Write Complete: ID=4, ADDR=0x10000004, RESP=OKAY, Latency=7 cycles
UVM_INFO sv/axi4_monitor.sv(296) @ 29000: uvm_test_top.m_env.m_master_agent.m_monitor [axi4_monitor] Write Complete: ID=0, ADDR=0x1000001c, RESP=OKAY, Latency=5 cycles
UVM_INFO sv/axi4_monitor.sv(296) @ 45000: uvm_test_top.m_env.m_master_agent.m_monitor [axi4_monitor] Write Complete: ID=12, ADDR=0x1000002c, RESP=OKAY, Latency=15 cycles
UVM_INFO sv/axi4_monitor.sv(296) @ 56000: uvm_test_top.m_env.m_master_agent.m_monitor [axi4_monitor] Write Complete: ID=3, ADDR=0x10000064, RESP=OKAY, Latency=10 cycles
UVM_INFO sv/axi4_monitor.sv(296) @ 63000: uvm_test_top.m_env.m_master_agent.m_monitor [axi4_monitor] Write Complete: ID=11, ADDR=0x10000088, RESP=OKAY, Latency=6 cycles
UVM_INFO sv/axi4_monitor.sv(296) @ 69000: uvm_test_top.m_env.m_master_agent.m_monitor [axi4_monitor] Write Complete: ID=8, ADDR=0x1000009c, RESP=OKAY, Latency=5 cycles
UVM_INFO sv/axi4_monitor.sv(296) @ 86000: uvm_test_top.m_env.m_master_agent.m_monitor [axi4_monitor] Write Complete: ID=10, ADDR=0x100000ac, RESP=OKAY, Latency=16 cycles
UVM_INFO sv/axi4_monitor.sv(296) @ 104000: uvm_test_top.m_env.m_master_agent.m_monitor [axi4_monitor] Write Complete: ID=1, ADDR=0x100000e8, RESP=OKAY, Latency=17 cycles
UVM_INFO sv/axi4_monitor.sv(296) @ 120000: uvm_test_top.m_env.m_master_agent.m_monitor [axi4_monitor] Write Complete: ID=2, ADDR=0x10000128, RESP=OKAY, Latency=15 cycles
UVM_INFO sv/axi4_monitor.sv(296) @ 123000: uvm_test_top.m_env.m_master_agent.m_monitor [axi4_monitor] Write Complete: ID=12, ADDR=0x10000160, RESP=OKAY, Latency=2 cycles
UVM_INFO sv/axi4_monitor.sv(296) @ 141000: uvm_test_top.m_env.m_master_agent.m_monitor [axi4_monitor] Write Complete: ID=3, ADDR=0x10000164, RESP=OKAY, Latency=17 cycles
UVM_INFO sv/axi4_monitor.sv(296) @ 150000: uvm_test_top.m_env.m_master_agent.m_monitor [axi4_monitor] Write Complete: ID=13, ADDR=0x100001a4, RESP=OKAY, Latency=8 cycles
UVM_INFO sv/axi4_monitor.sv(296) @ 168000: uvm_test_top.m_env.m_master_agent.m_monitor [axi4_monitor] Write Complete: ID=0, ADDR=0x100001c0, RESP=OKAY, Latency=17 cycles
UVM_INFO sv/axi4_monitor.sv(296) @ 183000: uvm_test_top.m_env.m_master_agent.m_monitor [axi4_monitor] Write Complete: ID=6, ADDR=0x10000200, RESP=OKAY, Latency=14 cycles
UVM_INFO sv/axi4_monitor.sv(296) @ 192000: uvm_test_top.m_env.m_master_agent.m_monitor [axi4_monitor] Write Complete: ID=9, ADDR=0x10000234, RESP=OKAY, Latency=8 cycles
UVM_INFO sv/axi4_monitor.sv(296) @ 200000: uvm_test_top.m_env.m_master_agent.m_monitor [axi4_monitor] Write Complete: ID=2, ADDR=0x10000250, RESP=OKAY, Latency=7 cycles
UVM_INFO sv/axi4_monitor.sv(296) @ 208000: uvm_test_top.m_env.m_master_agent.m_monitor [axi4_monitor] Write Complete: ID=11, ADDR=0x10000268, RESP=OKAY, Latency=7 cycles
UVM_INFO sv/axi4_monitor.sv(296) @ 224000: uvm_test_top.m_env.m_master_agent.m_monitor [axi4_monitor] Write Complete: ID=6, ADDR=0x10000280, RESP=OKAY, Latency=15 cycles
UVM_INFO sv/axi4_monitor.sv(296) @ 230000: uvm_test_top.m_env.m_master_agent.m_monitor [axi4_monitor] Write Complete: ID=14, ADDR=0x100002b8, RESP=OKAY, Latency=5 cycles
UVM_INFO sv/axi4_monitor.sv(296) @ 234000: uvm_test_top.m_env.m_master_agent.m_monitor [axi4_monitor] Write Complete: ID=5, ADDR=0x100002c8, RESP=OKAY, Latency=3 cycles
UVM_INFO sv/axi4_monitor.sv(296) @ 247000: uvm_test_top.m_env.m_master_agent.m_monitor [axi4_monitor] Write Complete: ID=7, ADDR=0x100002d0, RESP=OKAY, Latency=12 cycles
UVM_INFO sv/axi4_monitor.sv(296) @ 258000: uvm_test_top.m_env.m_master_agent.m_monitor [axi4_monitor] Write Complete: ID=14, ADDR=0x100002fc, RESP=OKAY, Latency=10 cycles
UVM_INFO sv/axi4_monitor.sv(296) @ 262000: uvm_test_top.m_env.m_master_agent.m_monitor [axi4_monitor] Write Complete: ID=14, ADDR=0x10000320, RESP=OKAY, Latency=3 cycles
UVM_INFO sv/axi4_monitor.sv(296) @ 275000: uvm_test_top.m_env.m_master_agent.m_monitor [axi4_monitor] Write Complete: ID=2, ADDR=0x10000328, RESP=OKAY, Latency=12 cycles
UVM_INFO sv/axi4_monitor.sv(296) @ 292000: uvm_test_top.m_env.m_master_agent.m_monitor [axi4_monitor] Write Complete: ID=2, ADDR=0x10000354, RESP=OKAY, Latency=16 cycles
UVM_INFO sv/axi4_monitor.sv(296) @ 296000: uvm_test_top.m_env.m_master_agent.m_monitor [axi4_monitor] Write Complete: ID=0, ADDR=0x10000390, RESP=OKAY, Latency=3 cycles
UVM_INFO sv/axi4_monitor.sv(296) @ 302000: uvm_test_top.m_env.m_master_agent.m_monitor [axi4_monitor] Write Complete: ID=9, ADDR=0x10000398, RESP=OKAY, Latency=5 cycles
UVM_INFO sv/axi4_monitor.sv(296) @ 307000: uvm_test_top.m_env.m_master_agent.m_monitor [axi4_monitor] Write Complete: ID=2, ADDR=0x100003a8, RESP=OKAY, Latency=4 cycles
UVM_INFO sv/axi4_monitor.sv(296) @ 325000: uvm_test_top.m_env.m_master_agent.m_monitor [axi4_monitor] Write Complete: ID=1, ADDR=0x100003b4, RESP=OKAY, Latency=17 cycles
UVM_INFO sv/axi4_monitor.sv(296) @ 331000: uvm_test_top.m_env.m_master_agent.m_monitor [axi4_monitor] Write Complete: ID=13, ADDR=0x100003f4, RESP=OKAY, Latency=5 cycles
UVM_INFO sv/axi4_monitor.sv(296) @ 340000: uvm_test_top.m_env.m_master_agent.m_monitor [axi4_monitor] Write Complete: ID=15, ADDR=0x10000404, RESP=OKAY, Latency=8 cycles
UVM_INFO sv/axi4_monitor.sv(296) @ 354000: uvm_test_top.m_env.m_master_agent.m_monitor [axi4_monitor] Write Complete: ID=1, ADDR=0x10000420, RESP=OKAY, Latency=13 cycles
UVM_INFO sv/axi4_monitor.sv(296) @ 364000: uvm_test_top.m_env.m_master_agent.m_monitor [axi4_monitor] Write Complete: ID=3, ADDR=0x10000450, RESP=OKAY, Latency=9 cycles
UVM_INFO sv/axi4_monitor.sv(296) @ 368000: uvm_test_top.m_env.m_master_agent.m_monitor [axi4_monitor] Write Complete: ID=13, ADDR=0x10000470, RESP=OKAY, Latency=3 cycles
UVM_INFO sv/axi4_monitor.sv(296) @ 373000: uvm_test_top.m_env.m_master_agent.m_monitor [axi4_monitor] Write Complete: ID=0, ADDR=0x10000478, RESP=OKAY, Latency=4 cycles
UVM_INFO sv/axi4_monitor.sv(296) @ 384000: uvm_test_top.m_env.m_master_agent.m_monitor [axi4_monitor] Write Complete: ID=4, ADDR=0x10000484, RESP=OKAY, Latency=10 cycles
UVM_INFO sv/axi4_monitor.sv(296) @ 391000: uvm_test_top.m_env.m_master_agent.m_monitor [axi4_monitor] Write Complete: ID=7, ADDR=0x100004a8, RESP=OKAY, Latency=6 cycles
UVM_INFO sv/axi4_monitor.sv(296) @ 398000: uvm_test_top.m_env.m_master_agent.m_monitor [axi4_monitor] Write Complete: ID=0, ADDR=0x100004bc, RESP=OKAY, Latency=6 cycles
UVM_INFO sv/axi4_monitor.sv(296) @ 406000: uvm_test_top.m_env.m_master_agent.m_monitor [axi4_monitor] Write Complete: ID=5, ADDR=0x100004d0, RESP=OKAY, Latency=7 cycles
UVM_INFO sv/axi4_monitor.sv(296) @ 412000: uvm_test_top.m_env.m_master_agent.m_monitor [axi4_monitor] Write Complete: ID=7, ADDR=0x100004e8, RESP=OKAY, Latency=5 cycles
UVM_INFO sv/axi4_monitor.sv(296) @ 426000: uvm_test_top.m_env.m_master_agent.m_monitor [axi4_monitor] Write Complete: ID=10, ADDR=0x100004f8, RESP=OKAY, Latency=13 cycles
UVM_INFO sv/axi4_monitor.sv(296) @ 432000: uvm_test_top.m_env.m_master_agent.m_monitor [axi4_monitor] Write Complete: ID=5, ADDR=0x10000528, RESP=OKAY, Latency=5 cycles
UVM_INFO sv/axi4_monitor.sv(296) @ 438000: uvm_test_top.m_env.m_master_agent.m_monitor [axi4_monitor] Write Complete: ID=13, ADDR=0x10000538, RESP=OKAY, Latency=5 cycles
UVM_INFO sv/axi4_monitor.sv(296) @ 448000: uvm_test_top.m_env.m_master_agent.m_monitor [axi4_monitor] Write Complete: ID=1, ADDR=0x10000548, RESP=OKAY, Latency=9 cycles
UVM_INFO sv/axi4_monitor.sv(296) @ 454000: uvm_test_top.m_env.m_master_agent.m_monitor [axi4_monitor] Write Complete: ID=7, ADDR=0x10000568, RESP=OKAY, Latency=5 cycles
UVM_INFO sv/axi4_monitor.sv(296) @ 468000: uvm_test_top.m_env.m_master_agent.m_monitor [axi4_monitor] Write Complete: ID=10, ADDR=0x10000578, RESP=OKAY, Latency=13 cycles
UVM_INFO sv/axi4_monitor.sv(296) @ 484000: uvm_test_top.m_env.m_master_agent.m_monitor [axi4_monitor] Write Complete: ID=0, ADDR=0x100005a8, RESP=OKAY, Latency=15 cycles
UVM_INFO sv/axi4_monitor.sv(296) @ 488000: uvm_test_top.m_env.m_master_agent.m_monitor [axi4_monitor] Write Complete: ID=13, ADDR=0x100005e0, RESP=OKAY, Latency=3 cycles
UVM_INFO sv/axi4_monitor.sv(296) @ 502000: uvm_test_top.m_env.m_master_agent.m_monitor [axi4_monitor] Write Complete: ID=7, ADDR=0x100005e8, RESP=OKAY, Latency=13 cycles
UVM_INFO sv/axi4_monitor.sv(296) @ 512000: uvm_test_top.m_env.m_master_agent.m_monitor [axi4_monitor] Write Complete: ID=10, ADDR=0x10000618, RESP=OKAY, Latency=9 cycles
UVM_INFO sv/axi4_monitor.sv(296) @ 518000: uvm_test_top.m_env.m_master_agent.m_monitor [axi4_monitor] Write Complete: ID=7, ADDR=0x10000638, RESP=OKAY, Latency=5 cycles
UVM_INFO sv/axi4_monitor.sv(296) @ 536000: uvm_test_top.m_env.m_master_agent.m_monitor [axi4_monitor] Write Complete: ID=15, ADDR=0x10000648, RESP=OKAY, Latency=17 cycles
UVM_INFO sv/axi4_monitor.sv(296) @ 550000: uvm_test_top.m_env.m_master_agent.m_monitor [axi4_monitor] Write Complete: ID=1, ADDR=0x10000688, RESP=OKAY, Latency=13 cycles
UVM_INFO sv/axi4_monitor.sv(296) @ 558000: uvm_test_top.m_env.m_master_agent.m_monitor [axi4_monitor] Write Complete: ID=3, ADDR=0x100006b8, RESP=OKAY, Latency=7 cycles
UVM_INFO sv/axi4_monitor.sv(296) @ 571000: uvm_test_top.m_env.m_master_agent.m_monitor [axi4_monitor] Write Complete: ID=5, ADDR=0x100006d0, RESP=OKAY, Latency=12 cycles
UVM_INFO sv/axi4_monitor.sv(296) @ 588000: uvm_test_top.m_env.m_master_agent.m_monitor [axi4_monitor] Write Complete: ID=11, ADDR=0x100006fc, RESP=OKAY, Latency=16 cycles
UVM_INFO sv/axi4_monitor.sv(296) @ 604000: uvm_test_top.m_env.m_master_agent.m_monitor [axi4_monitor] Write Complete: ID=8, ADDR=0x10000738, RESP=OKAY, Latency=15 cycles
UVM_INFO sv/axi4_monitor.sv(296) @ 609000: uvm_test_top.m_env.m_master_agent.m_monitor [axi4_monitor] Write Complete: ID=1, ADDR=0x10000770, RESP=OKAY, Latency=4 cycles
UVM_INFO sv/axi4_monitor.sv(296) @ 626000: uvm_test_top.m_env.m_master_agent.m_monitor [axi4_monitor] Write Complete: ID=10, ADDR=0x1000077c, RESP=OKAY, Latency=16 cycles
UVM_INFO sv/axi4_monitor.sv(296) @ 635000: uvm_test_top.m_env.m_master_agent.m_monitor [axi4_monitor] Write Complete: ID=6, ADDR=0x100007b8, RESP=OKAY, Latency=8 cycles
UVM_INFO sv/axi4_monitor.sv(296) @ 648000: uvm_test_top.m_env.m_master_agent.m_monitor [axi4_monitor] Write Complete: ID=1, ADDR=0x100007d4, RESP=OKAY, Latency=12 cycles
UVM_INFO sv/axi4_monitor.sv(296) @ 653000: uvm_test_top.m_env.m_master_agent.m_monitor [axi4_monitor] Write Complete: ID=4, ADDR=0x10000800, RESP=OKAY, Latency=4 cycles
UVM_INFO sv/axi4_monitor.sv(296) @ 658000: uvm_test_top.m_env.m_master_agent.m_monitor [axi4_monitor] Write Complete: ID=14, ADDR=0x1000080c, RESP=OKAY, Latency=4 cycles
UVM_INFO sv/axi4_monitor.sv(296) @ 673000: uvm_test_top.m_env.m_master_agent.m_monitor [axi4_monitor] Write Complete: ID=11, ADDR=0x10000818, RESP=OKAY, Latency=14 cycles
UVM_INFO sv/axi4_monitor.sv(296) @ 678000: uvm_test_top.m_env.m_master_agent.m_monitor [axi4_monitor] Write Complete: ID=1, ADDR=0x1000084c, RESP=OKAY, Latency=4 cycles
UVM_INFO sv/axi4_monitor.sv(296) @ 688000: uvm_test_top.m_env.m_master_agent.m_monitor [axi4_monitor] Write Complete: ID=8, ADDR=0x10000858, RESP=OKAY, Latency=9 cycles
UVM_INFO sv/axi4_monitor.sv(296) @ 695000: uvm_test_top.m_env.m_master_agent.m_monitor [axi4_monitor] Write Complete: ID=6, ADDR=0x10000878, RESP=OKAY, Latency=6 cycles
UVM_INFO sv/axi4_monitor.sv(296) @ 699000: uvm_test_top.m_env.m_master_agent.m_monitor [axi4_monitor] Write Complete: ID=1, ADDR=0x1000088c, RESP=OKAY, Latency=3 cycles
UVM_INFO sv/axi4_monitor.sv(296) @ 713000: uvm_test_top.m_env.m_master_agent.m_monitor [axi4_monitor] Write Complete: ID=11, ADDR=0x10000894, RESP=OKAY, Latency=13 cycles
UVM_INFO sv/axi4_monitor.sv(296) @ 727000: uvm_test_top.m_env.m_master_agent.m_monitor [axi4_monitor] Write Complete: ID=8, ADDR=0x100008c4, RESP=OKAY, Latency=13 cycles
UVM_INFO sv/axi4_monitor.sv(296) @ 734000: uvm_test_top.m_env.m_master_agent.m_monitor [axi4_monitor] Write Complete: ID=8, ADDR=0x100008f4, RESP=OKAY, Latency=6 cycles
UVM_INFO sv/axi4_monitor.sv(296) @ 741000: uvm_test_top.m_env.m_master_agent.m_monitor [axi4_monitor] Write Complete: ID=4, ADDR=0x10000908, RESP=OKAY, Latency=6 cycles
UVM_INFO sv/axi4_monitor.sv(296) @ 746000: uvm_test_top.m_env.m_master_agent.m_monitor [axi4_monitor] Write Complete: ID=4, ADDR=0x1000091c, RESP=OKAY, Latency=4 cycles
UVM_INFO sv/axi4_monitor.sv(296) @ 754000: uvm_test_top.m_env.m_master_agent.m_monitor [axi4_monitor] Write Complete: ID=2, ADDR=0x10000928, RESP=OKAY, Latency=7 cycles
UVM_INFO sv/axi4_monitor.sv(296) @ 758000: uvm_test_top.m_env.m_master_agent.m_monitor [axi4_monitor] Write Complete: ID=14, ADDR=0x10000940, RESP=OKAY, Latency=3 cycles
UVM_INFO sv/axi4_monitor.sv(296) @ 764000: uvm_test_top.m_env.m_master_agent.m_monitor [axi4_monitor] Write Complete: ID=12, ADDR=0x10000948, RESP=OKAY, Latency=5 cycles
UVM_INFO sv/axi4_monitor.sv(296) @ 775000: uvm_test_top.m_env.m_master_agent.m_monitor [axi4_monitor] Write Complete: ID=11, ADDR=0x10000958, RESP=OKAY, Latency=10 cycles
UVM_INFO sv/axi4_monitor.sv(296) @ 782000: uvm_test_top.m_env.m_master_agent.m_monitor [axi4_monitor] Write Complete: ID=13, ADDR=0x1000097c, RESP=OKAY, Latency=6 cycles
UVM_INFO sv/axi4_monitor.sv(296) @ 789000: uvm_test_top.m_env.m_master_agent.m_monitor [axi4_monitor] Write Complete: ID=10, ADDR=0x10000990, RESP=OKAY, Latency=6 cycles
UVM_INFO sv/axi4_monitor.sv(296) @ 793000: uvm_test_top.m_env.m_master_agent.m_monitor [axi4_monitor] Write Complete: ID=2, ADDR=0x100009a4, RESP=OKAY, Latency=3 cycles
UVM_INFO sv/axi4_monitor.sv(296) @ 806000: uvm_test_top.m_env.m_master_agent.m_monitor [axi4_monitor] Write Complete: ID=9, ADDR=0x100009ac, RESP=OKAY, Latency=12 cycles
UVM_INFO sv/axi4_monitor.sv(296) @ 815000: uvm_test_top.m_env.m_master_agent.m_monitor [axi4_monitor] Write Complete: ID=6, ADDR=0x100009d8, RESP=OKAY, Latency=8 cycles
UVM_INFO sv/axi4_monitor.sv(296) @ 818000: uvm_test_top.m_env.m_master_agent.m_monitor [axi4_monitor] Write Complete: ID=12, ADDR=0x100009f4, RESP=OKAY, Latency=2 cycles
UVM_INFO sv/axi4_monitor.sv(296) @ 836000: uvm_test_top.m_env.m_master_agent.m_monitor [axi4_monitor] Write Complete: ID=13, ADDR=0x100009f8, RESP=OKAY, Latency=17 cycles
UVM_INFO sv/axi4_monitor.sv(296) @ 850000: uvm_test_top.m_env.m_master_agent.m_monitor [axi4_monitor] Write Complete: ID=7, ADDR=0x10000a38, RESP=OKAY, Latency=13 cycles
UVM_INFO sv/axi4_monitor.sv(296) @ 863000: uvm_test_top.m_env.m_master_agent.m_monitor [axi4_monitor] Write Complete: ID=3, ADDR=0x10000a68, RESP=OKAY, Latency=12 cycles
UVM_INFO sv/axi4_monitor.sv(296) @ 877000: uvm_test_top.m_env.m_master_agent.m_monitor [axi4_monitor] Write Complete: ID=6, ADDR=0x10000a94, RESP=OKAY, Latency=13 cycles
UVM_INFO sv/axi4_monitor.sv(296) @ 883000: uvm_test_top.m_env.m_master_agent.m_monitor [axi4_monitor] Write Complete: ID=14, ADDR=0x10000ac4, RESP=OKAY, Latency=5 cycles
UVM_INFO sv/axi4_monitor.sv(296) @ 891000: uvm_test_top.m_env.m_master_agent.m_monitor [axi4_monitor] Write Complete: ID=10, ADDR=0x10000ad4, RESP=OKAY, Latency=7 cycles
UVM_INFO sv/axi4_monitor.sv(296) @ 898000: uvm_test_top.m_env.m_master_agent.m_monitor [axi4_monitor] Write Complete: ID=1, ADDR=0x10000aec, RESP=OKAY, Latency=6 cycles
UVM_INFO sv/axi4_monitor.sv(296) @ 903000: uvm_test_top.m_env.m_master_agent.m_monitor [axi4_monitor] Write Complete: ID=9, ADDR=0x10000b00, RESP=OKAY, Latency=4 cycles
UVM_INFO sv/axi4_monitor.sv(296) @ 917000: uvm_test_top.m_env.m_master_agent.m_monitor [axi4_monitor] Write Complete: ID=8, ADDR=0x10000b0c, RESP=OKAY, Latency=13 cycles
UVM_INFO sv/axi4_monitor.sv(296) @ 923000: uvm_test_top.m_env.m_master_agent.m_monitor [axi4_monitor] Write Complete: ID=12, ADDR=0x10000b3c, RESP=OKAY, Latency=5 cycles
UVM_INFO sv/axi4_monitor.sv(296) @ 938000: uvm_test_top.m_env.m_master_agent.m_monitor [axi4_monitor] Write Complete: ID=6, ADDR=0x10000b4c, RESP=OKAY, Latency=14 cycles
UVM_INFO sv/axi4_monitor.sv(296) @ 946000: uvm_test_top.m_env.m_master_agent.m_monitor [axi4_monitor] Write Complete: ID=8, ADDR=0x10000b80, RESP=OKAY, Latency=7 cycles
UVM_INFO sv/axi4_monitor.sv(296) @ 964000: uvm_test_top.m_env.m_master_agent.m_monitor [axi4_monitor] Write Complete: ID=7, ADDR=0x10000b98, RESP=OKAY, Latency=17 cycles
UVM_INFO sv/axi4_monitor.sv(296) @ 974000: uvm_test_top.m_env.m_master_agent.m_monitor [axi4_monitor] Write Complete: ID=6, ADDR=0x10000bd8, RESP=OKAY, Latency=9 cycles
UVM_INFO sv/axi4_monitor.sv(296) @ 986000: uvm_test_top.m_env.m_master_agent.m_monitor [axi4_monitor] Write Complete: ID=4, ADDR=0x10000bf8, RESP=OKAY, Latency=11 cycles
UVM_INFO sv/seq_lib.sv(3618) @ 990000: uvm_test_top.m_env.m_master_agent.m_sequencer@@seq [axi4_long_time_sequence] Write progress: 100/500 transactions
UVM_INFO sv/axi4_monitor.sv(296) @ 992000: uvm_test_top.m_env.m_master_agent.m_monitor [axi4_monitor] Write Complete: ID=3, ADDR=0x10000c20, RESP=OKAY, Latency=5 cycles
UVM_INFO sv/axi4_monitor.sv(296) @ 1008000: uvm_test_top.m_env.m_master_agent.m_monitor [axi4_monitor] Write Complete: ID=12, ADDR=0x10000c30, RESP=OKAY, Latency=15 cycles
UVM_INFO sv/axi4_monitor.sv(296) @ 1013000: uvm_test_top.m_env.m_master_agent.m_monitor [axi4_monitor] Write Complete: ID=10, ADDR=0x10000c68, RESP=OKAY, Latency=4 cycles
UVM_INFO sv/axi4_monitor.sv(296) @ 1027000: uvm_test_top.m_env.m_master_agent.m_monitor [axi4_monitor] Write Complete: ID=11, ADDR=0x10000c74, RESP=OKAY, Latency=13 cycles
UVM_INFO sv/axi4_monitor.sv(296) @ 1034000: uvm_test_top.m_env.m_master_agent.m_monitor [axi4_monitor] Write Complete: ID=0, ADDR=0x10000ca4, RESP=OKAY, Latency=6 cycles
UVM_INFO sv/axi4_monitor.sv(296) @ 1037000: uvm_test_top.m_env.m_master_agent.m_monitor [axi4_monitor] Write Complete: ID=13, ADDR=0x10000cb8, RESP=OKAY, Latency=2 cycles
UVM_INFO sv/axi4_monitor.sv(296) @ 1051000: uvm_test_top.m_env.m_master_agent.m_monitor [axi4_monitor] Write Complete: ID=10, ADDR=0x10000cbc, RESP=OKAY, Latency=13 cycles
UVM_INFO sv/axi4_monitor.sv(296) @ 1063000: uvm_test_top.m_env.m_master_agent.m_monitor [axi4_monitor] Write Complete: ID=15, ADDR=0x10000cec, RESP=OKAY, Latency=11 cycles
UVM_INFO sv/axi4_monitor.sv(296) @ 1081000: uvm_test_top.m_env.m_master_agent.m_monitor [axi4_monitor] Write Complete: ID=14, ADDR=0x10000d14, RESP=OKAY, Latency=17 cycles
UVM_INFO sv/axi4_monitor.sv(296) @ 1096000: uvm_test_top.m_env.m_master_agent.m_monitor [axi4_monitor] Write Complete: ID=3, ADDR=0x10000d54, RESP=OKAY, Latency=14 cycles
UVM_INFO sv/axi4_monitor.sv(296) @ 1114000: uvm_test_top.m_env.m_master_agent.m_monitor [axi4_monitor] Write Complete: ID=10, ADDR=0x10000d88, RESP=OKAY, Latency=17 cycles
UVM_INFO sv/axi4_monitor.sv(296) @ 1131000: uvm_test_top.m_env.m_master_agent.m_monitor [axi4_monitor] Write Complete: ID=15, ADDR=0x10000dc8, RESP=OKAY, Latency=16 cycles
UVM_INFO sv/axi4_monitor.sv(296) @ 1142000: uvm_test_top.m_env.m_master_agent.m_monitor [axi4_monitor] Write Complete: ID=15, ADDR=0x10000e04, RESP=OKAY, Latency=10 cycles
UVM_INFO sv/axi4_monitor.sv(296) @ 1152000: uvm_test_top.m_env.m_master_agent.m_monitor [axi4_monitor] Write Complete: ID=7, ADDR=0x10000e28, RESP=OKAY, Latency=9 cycles
UVM_INFO sv/axi4_monitor.sv(296) @ 1162000: uvm_test_top.m_env.m_master_agent.m_monitor [axi4_monitor] Write Complete: ID=2, ADDR=0x10000e48, RESP=OKAY, Latency=9 cycles
UVM_INFO sv/axi4_monitor.sv(296) @ 1171000: uvm_test_top.m_env.m_master_agent.m_monitor [axi4_monitor] Write Complete: ID=5, ADDR=0x10000e68, RESP=OKAY, Latency=8 cycles
UVM_INFO sv/axi4_monitor.sv(296) @ 1187000: uvm_test_top.m_env.m_master_agent.m_monitor [axi4_monitor] Write Complete: ID=10, ADDR=0x10000e84, RESP=OKAY, Latency=15 cycles
UVM_INFO sv/axi4_monitor.sv(296) @ 1202000: uvm_test_top.m_env.m_master_agent.m_monitor [axi4_monitor] Write Complete: ID=14, ADDR=0x10000ebc, RESP=OKAY, Latency=14 cycles
UVM_INFO sv/axi4_monitor.sv(296) @ 1205000: uvm_test_top.m_env.m_master_agent.m_monitor [axi4_monitor] Write Complete: ID=7, ADDR=0x10000ef0, RESP=OKAY, Latency=2 cycles
UVM_INFO sv/axi4_monitor.sv(296) @ 1219000: uvm_test_top.m_env.m_master_agent.m_monitor [axi4_monitor] Write Complete: ID=2, ADDR=0x10000ef4, RESP=OKAY, Latency=13 cycles
