verdiLog/novas_sim.log
Invoking simulator...

./simv_axi4_data_first_test +UVM_TESTNAME=axi4_data_first_test +UVM_VERBOSITY=UVM_MEDIUM -l sim_axi4_data_first_test.log +ntb_random_seed=1 -sml=verdi +UVM_VERDI_TRACE=UVM_AWARE +fsdb+gate=off -ucli2Proc -ucli
debImport "-i" "-simflow" "-dbdir" "./simv_axi4_data_first_test.daidir"
*Verdi* Loading libsscore_vcs201809.so

FSDB Dumper for VCS, Release Verdi_O-2018.09-SP2, Linux x86_64/64bit, 02/21/2019
(C) 1996 - 2019 by Synopsys, Inc.
*Verdi* : Create FSDB file '/home/xingchangchang/ai_evaluation/claude_code/axi4_vip/ai_cc_glm5_axi4_vip/inter.fsdb'
*Verdi* : Flush all FSDB Files at 0 ps.

*Verdi* : Enable RPC Server(180609)

srcTBInvokeSim
Chronologic VCS simulator copyright 1991-2018
Contains Synopsys proprietary information.
Compiler version O-2018.09-SP2_Full64; Runtime version O-2018.09-SP2_Full64;  Apr  9 16:24 2026
UVM_INFO /home/xingchangchang/ProgramFiles/vcs_verdi2018/synopsys/vcs_201809/vcs/O-2018.09-SP2/etc/uvm-1.2/base/uvm_root.svh(402) @ 0: reporter [UVM/RELNOTES] 
----------------------------------------------------------------
UVM-1.2.Synopsys
(C) 2007-2014 Mentor Graphics Corporation
(C) 2007-2014 Cadence Design Systems, Inc.
(C) 2006-2014 Synopsys, Inc.
(C) 2011-2013 Cypress Semiconductor Corp.
(C) 2013-2014 NVIDIA Corporation
----------------------------------------------------------------
  ***********       IMPORTANT RELEASE NOTES         ************
  You are using a version of the UVM library that has been compiled
  with `UVM_NO_DEPRECATED undefined.
  See http://www.eda.org/svdb/view.php?id=3313 for more details.
  You are using a version of the UVM library that has been compiled
  with `UVM_OBJECT_DO_NOT_NEED_CONSTRUCTOR undefined.
  See http://www.eda.org/svdb/view.php?id=3770 for more details.
      (Specify +UVM_NO_RELNOTES to turn off this notice)
xterm-256color is Not a valid terminal...
Verdi>run
*Verdi* Enable Verdi Message Catcher.
*Verdi* : Begin traversing the scope (axi4_tb_top), layer (0).
*Verdi* : End of traversing.
*Verdi* Enable Verdi Factory Dumping.
UVM_INFO @ 0: reporter [RNTST] Running test axi4_data_first_test...
UVM_INFO sv/test_lib.sv(757) @ 0: uvm_test_top [axi4_data_first_test] Data-before-addr mode ENABLED with OSD=4
UVM_INFO sv/axi4_env.sv(58) @ 0: uvm_test_top.m_env [axi4_env] AXI4 VIP Topology:
UVM_INFO /home/xingchangchang/ProgramFiles/vcs_verdi2018/synopsys/vcs_201809/vcs/O-2018.09-SP2/etc/uvm-1.2/base/uvm_root.svh(589) @ 0: reporter [UVMTOP] UVM testbench topology:
--------------------------------------------------------------
Name                       Type                    Size  Value
--------------------------------------------------------------
DHIER_COMP                 uvm_dhier_component     -     @339 
uvm_test_top               axi4_data_first_test    -     @358 
  m_env                    axi4_env                -     @408 
    m_ap                   uvm_analysis_port       -     @439 
    m_master_agent         axi4_master_agent       -     @426 
      m_ap                 uvm_analysis_port       -     @748 
      m_driver             axi4_master_driver      -     @488 
        rsp_port           uvm_analysis_port       -     @517 
        seq_item_port      uvm_seq_item_pull_port  -     @501 
      m_monitor            axi4_monitor            -     @459 
        m_ap               uvm_analysis_port       -     @472 
      m_sequencer          axi4_sequencer          -     @533 
        rsp_export         uvm_analysis_export     -     @546 
        seq_item_export    uvm_seq_item_pull_imp   -     @732 
        arbitration_queue  array                   0     -    
        lock_queue         array                   0     -    
        num_last_reqs      integral                32    'd1  
        num_last_rsps      integral                32    'd1  
--------------------------------------------------------------

UVM_INFO sv/test_lib.sv(766) @ 0: uvm_test_top [axi4_data_first_test] ===========================================
UVM_INFO sv/test_lib.sv(767) @ 0: uvm_test_top [axi4_data_first_test]        AXI4 DATA FIRST TEST
UVM_INFO sv/test_lib.sv(768) @ 0: uvm_test_top [axi4_data_first_test] ===========================================
UVM_INFO sv/test_lib.sv(769) @ 0: uvm_test_top [axi4_data_first_test] Test Configuration:
UVM_INFO sv/test_lib.sv(770) @ 0: uvm_test_top [axi4_data_first_test]   - Burst Length: random [1:16] beats
UVM_INFO sv/test_lib.sv(771) @ 0: uvm_test_top [axi4_data_first_test]   - Transfer Size: 4 bytes (SIZE=2)
UVM_INFO sv/test_lib.sv(772) @ 0: uvm_test_top [axi4_data_first_test]   - Burst Type: INCR
UVM_INFO sv/test_lib.sv(773) @ 0: uvm_test_top [axi4_data_first_test]   - Start Address: 0x1000_0000 (aligned)
UVM_INFO sv/test_lib.sv(774) @ 0: uvm_test_top [axi4_data_first_test]   - Number of Transactions: 500
UVM_INFO sv/test_lib.sv(775) @ 0: uvm_test_top [axi4_data_first_test]   - Data Before Addr: ENABLED
UVM_INFO sv/test_lib.sv(776) @ 0: uvm_test_top [axi4_data_first_test]   - Data Before Addr OSD: 4
UVM_INFO sv/test_lib.sv(777) @ 0: uvm_test_top [axi4_data_first_test] ===========================================
UVM_INFO sv/seq_lib.sv(3347) @ 0: uvm_test_top.m_env.m_master_agent.m_sequencer@@seq [axi4_data_first_sequence] ===========================================
UVM_INFO sv/seq_lib.sv(3348) @ 0: uvm_test_top.m_env.m_master_agent.m_sequencer@@seq [axi4_data_first_sequence]        DATA FIRST TEST SEQUENCE
UVM_INFO sv/seq_lib.sv(3349) @ 0: uvm_test_top.m_env.m_master_agent.m_sequencer@@seq [axi4_data_first_sequence] ===========================================
UVM_INFO sv/seq_lib.sv(3350) @ 0: uvm_test_top.m_env.m_master_agent.m_sequencer@@seq [axi4_data_first_sequence] Test Configuration:
UVM_INFO sv/seq_lib.sv(3351) @ 0: uvm_test_top.m_env.m_master_agent.m_sequencer@@seq [axi4_data_first_sequence]   - Burst Length: random [1:16] beats
UVM_INFO sv/seq_lib.sv(3353) @ 0: uvm_test_top.m_env.m_master_agent.m_sequencer@@seq [axi4_data_first_sequence]   - Transfer Size: 4 bytes (SIZE=2)
UVM_INFO sv/seq_lib.sv(3355) @ 0: uvm_test_top.m_env.m_master_agent.m_sequencer@@seq [axi4_data_first_sequence]   - Burst Type: INCR
UVM_INFO sv/seq_lib.sv(3357) @ 0: uvm_test_top.m_env.m_master_agent.m_sequencer@@seq [axi4_data_first_sequence]   - Start Address: 0x10000000 (aligned)
UVM_INFO sv/seq_lib.sv(3359) @ 0: uvm_test_top.m_env.m_master_agent.m_sequencer@@seq [axi4_data_first_sequence]   - Number of Transactions: 500
UVM_INFO sv/seq_lib.sv(3361) @ 0: uvm_test_top.m_env.m_master_agent.m_sequencer@@seq [axi4_data_first_sequence]   - Data Before Addr: ENABLED
UVM_INFO sv/seq_lib.sv(3363) @ 0: uvm_test_top.m_env.m_master_agent.m_sequencer@@seq [axi4_data_first_sequence] ===========================================
UVM_INFO sv/seq_lib.sv(3368) @ 0: uvm_test_top.m_env.m_master_agent.m_sequencer@@seq [axi4_data_first_sequence] === Phase 1: Sending WRITE transactions ===
UVM_INFO sv/axi4_monitor.sv(233) @ 18000: uvm_test_top.m_env.m_master_agent.m_monitor [axi4_monitor] Write Complete: ID=2, ADDR=0x10000000, RESP=OKAY, Latency=1 cycles
UVM_INFO sv/axi4_monitor.sv(233) @ 29000: uvm_test_top.m_env.m_master_agent.m_monitor [axi4_monitor] Write Complete: ID=4, ADDR=0x10000004, RESP=OKAY, Latency=6 cycles
UVM_INFO sv/axi4_monitor.sv(233) @ 34000: uvm_test_top.m_env.m_master_agent.m_monitor [axi4_monitor] Write Complete: ID=0, ADDR=0x1000001c, RESP=OKAY, Latency=4 cycles
UVM_INFO sv/axi4_monitor.sv(233) @ 50000: uvm_test_top.m_env.m_master_agent.m_monitor [axi4_monitor] Write Complete: ID=12, ADDR=0x1000002c, RESP=OKAY, Latency=14 cycles
UVM_INFO sv/axi4_monitor.sv(233) @ 60000: uvm_test_top.m_env.m_master_agent.m_monitor [axi4_monitor] Write Complete: ID=3, ADDR=0x10000064, RESP=OKAY, Latency=9 cycles
UVM_INFO sv/axi4_monitor.sv(233) @ 66000: uvm_test_top.m_env.m_master_agent.m_monitor [axi4_monitor] Write Complete: ID=11, ADDR=0x10000088, RESP=OKAY, Latency=5 cycles
UVM_INFO sv/axi4_monitor.sv(233) @ 71000: uvm_test_top.m_env.m_master_agent.m_monitor [axi4_monitor] Write Complete: ID=8, ADDR=0x1000009c, RESP=OKAY, Latency=4 cycles
UVM_INFO sv/axi4_monitor.sv(233) @ 88000: uvm_test_top.m_env.m_master_agent.m_monitor [axi4_monitor] Write Complete: ID=10, ADDR=0x100000ac, RESP=OKAY, Latency=15 cycles
UVM_INFO sv/axi4_monitor.sv(233) @ 105000: uvm_test_top.m_env.m_master_agent.m_monitor [axi4_monitor] Write Complete: ID=1, ADDR=0x100000e8, RESP=OKAY, Latency=16 cycles
UVM_INFO sv/axi4_monitor.sv(233) @ 120000: uvm_test_top.m_env.m_master_agent.m_monitor [axi4_monitor] Write Complete: ID=2, ADDR=0x10000128, RESP=OKAY, Latency=14 cycles
UVM_INFO sv/axi4_monitor.sv(233) @ 122000: uvm_test_top.m_env.m_master_agent.m_monitor [axi4_monitor] Write Complete: ID=12, ADDR=0x10000160, RESP=OKAY, Latency=1 cycles
UVM_INFO sv/axi4_monitor.sv(233) @ 143000: uvm_test_top.m_env.m_master_agent.m_monitor [axi4_monitor] Write Complete: ID=3, ADDR=0x10000164, RESP=OKAY, Latency=16 cycles
UVM_INFO sv/axi4_monitor.sv(233) @ 151000: uvm_test_top.m_env.m_master_agent.m_monitor [axi4_monitor] Write Complete: ID=13, ADDR=0x100001a4, RESP=OKAY, Latency=7 cycles
UVM_INFO sv/axi4_monitor.sv(233) @ 168000: uvm_test_top.m_env.m_master_agent.m_monitor [axi4_monitor] Write Complete: ID=0, ADDR=0x100001c0, RESP=OKAY, Latency=16 cycles
UVM_INFO sv/axi4_monitor.sv(233) @ 182000: uvm_test_top.m_env.m_master_agent.m_monitor [axi4_monitor] Write Complete: ID=6, ADDR=0x10000200, RESP=OKAY, Latency=13 cycles
UVM_INFO sv/axi4_monitor.sv(233) @ 190000: uvm_test_top.m_env.m_master_agent.m_monitor [axi4_monitor] Write Complete: ID=9, ADDR=0x10000234, RESP=OKAY, Latency=7 cycles
UVM_INFO sv/axi4_monitor.sv(233) @ 197000: uvm_test_top.m_env.m_master_agent.m_monitor [axi4_monitor] Write Complete: ID=2, ADDR=0x10000250, RESP=OKAY, Latency=6 cycles
UVM_INFO sv/axi4_monitor.sv(233) @ 204000: uvm_test_top.m_env.m_master_agent.m_monitor [axi4_monitor] Write Complete: ID=11, ADDR=0x10000268, RESP=OKAY, Latency=6 cycles
UVM_INFO sv/axi4_monitor.sv(233) @ 219000: uvm_test_top.m_env.m_master_agent.m_monitor [axi4_monitor] Write Complete: ID=6, ADDR=0x10000280, RESP=OKAY, Latency=14 cycles
UVM_INFO sv/axi4_monitor.sv(233) @ 224000: uvm_test_top.m_env.m_master_agent.m_monitor [axi4_monitor] Write Complete: ID=14, ADDR=0x100002b8, RESP=OKAY, Latency=4 cycles
UVM_INFO sv/axi4_monitor.sv(233) @ 228000: uvm_test_top.m_env.m_master_agent.m_monitor [axi4_monitor] Write Complete: ID=5, ADDR=0x100002c8, RESP=OKAY, Latency=2 cycles
UVM_INFO sv/axi4_monitor.sv(233) @ 243000: uvm_test_top.m_env.m_master_agent.m_monitor [axi4_monitor] Write Complete: ID=7, ADDR=0x100002d0, RESP=OKAY, Latency=11 cycles
UVM_INFO sv/axi4_monitor.sv(233) @ 253000: uvm_test_top.m_env.m_master_agent.m_monitor [axi4_monitor] Write Complete: ID=14, ADDR=0x100002fc, RESP=OKAY, Latency=9 cycles
UVM_INFO sv/axi4_monitor.sv(233) @ 256000: uvm_test_top.m_env.m_master_agent.m_monitor [axi4_monitor] Write Complete: ID=14, ADDR=0x10000320, RESP=OKAY, Latency=2 cycles
UVM_INFO sv/axi4_monitor.sv(233) @ 271000: uvm_test_top.m_env.m_master_agent.m_monitor [axi4_monitor] Write Complete: ID=2, ADDR=0x10000328, RESP=OKAY, Latency=11 cycles
UVM_INFO sv/axi4_monitor.sv(233) @ 287000: uvm_test_top.m_env.m_master_agent.m_monitor [axi4_monitor] Write Complete: ID=2, ADDR=0x10000354, RESP=OKAY, Latency=15 cycles
UVM_INFO sv/axi4_monitor.sv(233) @ 290000: uvm_test_top.m_env.m_master_agent.m_monitor [axi4_monitor] Write Complete: ID=0, ADDR=0x10000390, RESP=OKAY, Latency=2 cycles
UVM_INFO sv/axi4_monitor.sv(233) @ 298000: uvm_test_top.m_env.m_master_agent.m_monitor [axi4_monitor] Write Complete: ID=9, ADDR=0x10000398, RESP=OKAY, Latency=4 cycles
UVM_INFO sv/axi4_monitor.sv(233) @ 303000: uvm_test_top.m_env.m_master_agent.m_monitor [axi4_monitor] Write Complete: ID=2, ADDR=0x100003a8, RESP=OKAY, Latency=3 cycles
UVM_INFO sv/axi4_monitor.sv(233) @ 322000: uvm_test_top.m_env.m_master_agent.m_monitor [axi4_monitor] Write Complete: ID=1, ADDR=0x100003b4, RESP=OKAY, Latency=16 cycles
UVM_INFO sv/axi4_monitor.sv(233) @ 327000: uvm_test_top.m_env.m_master_agent.m_monitor [axi4_monitor] Write Complete: ID=13, ADDR=0x100003f4, RESP=OKAY, Latency=4 cycles
UVM_INFO sv/axi4_monitor.sv(233) @ 336000: uvm_test_top.m_env.m_master_agent.m_monitor [axi4_monitor] Write Complete: ID=15, ADDR=0x10000404, RESP=OKAY, Latency=7 cycles
UVM_INFO sv/axi4_monitor.sv(233) @ 349000: uvm_test_top.m_env.m_master_agent.m_monitor [axi4_monitor] Write Complete: ID=1, ADDR=0x10000420, RESP=OKAY, Latency=12 cycles
UVM_INFO sv/axi4_monitor.sv(233) @ 358000: uvm_test_top.m_env.m_master_agent.m_monitor [axi4_monitor] Write Complete: ID=3, ADDR=0x10000450, RESP=OKAY, Latency=8 cycles
UVM_INFO sv/axi4_monitor.sv(233) @ 361000: uvm_test_top.m_env.m_master_agent.m_monitor [axi4_monitor] Write Complete: ID=13, ADDR=0x10000470, RESP=OKAY, Latency=2 cycles
UVM_INFO sv/axi4_monitor.sv(233) @ 368000: uvm_test_top.m_env.m_master_agent.m_monitor [axi4_monitor] Write Complete: ID=0, ADDR=0x10000478, RESP=OKAY, Latency=3 cycles
UVM_INFO sv/axi4_monitor.sv(233) @ 380000: uvm_test_top.m_env.m_master_agent.m_monitor [axi4_monitor] Write Complete: ID=4, ADDR=0x10000484, RESP=OKAY, Latency=9 cycles
UVM_INFO sv/axi4_monitor.sv(233) @ 386000: uvm_test_top.m_env.m_master_agent.m_monitor [axi4_monitor] Write Complete: ID=7, ADDR=0x100004a8, RESP=OKAY, Latency=5 cycles
UVM_INFO sv/axi4_monitor.sv(233) @ 392000: uvm_test_top.m_env.m_master_agent.m_monitor [axi4_monitor] Write Complete: ID=0, ADDR=0x100004bc, RESP=OKAY, Latency=5 cycles
UVM_INFO sv/axi4_monitor.sv(233) @ 399000: uvm_test_top.m_env.m_master_agent.m_monitor [axi4_monitor] Write Complete: ID=5, ADDR=0x100004d0, RESP=OKAY, Latency=6 cycles
UVM_INFO sv/axi4_monitor.sv(233) @ 404000: uvm_test_top.m_env.m_master_agent.m_monitor [axi4_monitor] Write Complete: ID=7, ADDR=0x100004e8, RESP=OKAY, Latency=4 cycles
UVM_INFO sv/axi4_monitor.sv(233) @ 418000: uvm_test_top.m_env.m_master_agent.m_monitor [axi4_monitor] Write Complete: ID=10, ADDR=0x100004f8, RESP=OKAY, Latency=12 cycles
UVM_INFO sv/axi4_monitor.sv(233) @ 423000: uvm_test_top.m_env.m_master_agent.m_monitor [axi4_monitor] Write Complete: ID=5, ADDR=0x10000528, RESP=OKAY, Latency=4 cycles
UVM_INFO sv/axi4_monitor.sv(233) @ 429000: uvm_test_top.m_env.m_master_agent.m_monitor [axi4_monitor] Write Complete: ID=13, ADDR=0x10000538, RESP=OKAY, Latency=4 cycles
UVM_INFO sv/axi4_monitor.sv(233) @ 439000: uvm_test_top.m_env.m_master_agent.m_monitor [axi4_monitor] Write Complete: ID=1, ADDR=0x10000548, RESP=OKAY, Latency=8 cycles
UVM_INFO sv/axi4_monitor.sv(233) @ 444000: uvm_test_top.m_env.m_master_agent.m_monitor [axi4_monitor] Write Complete: ID=7, ADDR=0x10000568, RESP=OKAY, Latency=4 cycles
UVM_INFO sv/axi4_monitor.sv(233) @ 458000: uvm_test_top.m_env.m_master_agent.m_monitor [axi4_monitor] Write Complete: ID=10, ADDR=0x10000578, RESP=OKAY, Latency=12 cycles
UVM_INFO sv/axi4_monitor.sv(233) @ 473000: uvm_test_top.m_env.m_master_agent.m_monitor [axi4_monitor] Write Complete: ID=0, ADDR=0x100005a8, RESP=OKAY, Latency=14 cycles
UVM_INFO sv/axi4_monitor.sv(233) @ 476000: uvm_test_top.m_env.m_master_agent.m_monitor [axi4_monitor] Write Complete: ID=13, ADDR=0x100005e0, RESP=OKAY, Latency=2 cycles
UVM_INFO sv/axi4_monitor.sv(233) @ 492000: uvm_test_top.m_env.m_master_agent.m_monitor [axi4_monitor] Write Complete: ID=7, ADDR=0x100005e8, RESP=OKAY, Latency=12 cycles
UVM_INFO sv/axi4_monitor.sv(233) @ 501000: uvm_test_top.m_env.m_master_agent.m_monitor [axi4_monitor] Write Complete: ID=10, ADDR=0x10000618, RESP=OKAY, Latency=8 cycles
UVM_INFO sv/axi4_monitor.sv(233) @ 506000: uvm_test_top.m_env.m_master_agent.m_monitor [axi4_monitor] Write Complete: ID=7, ADDR=0x10000638, RESP=OKAY, Latency=4 cycles
UVM_INFO sv/axi4_monitor.sv(233) @ 524000: uvm_test_top.m_env.m_master_agent.m_monitor [axi4_monitor] Write Complete: ID=15, ADDR=0x10000648, RESP=OKAY, Latency=16 cycles
UVM_INFO sv/axi4_monitor.sv(233) @ 537000: uvm_test_top.m_env.m_master_agent.m_monitor [axi4_monitor] Write Complete: ID=1, ADDR=0x10000688, RESP=OKAY, Latency=12 cycles
UVM_INFO sv/axi4_monitor.sv(233) @ 544000: uvm_test_top.m_env.m_master_agent.m_monitor [axi4_monitor] Write Complete: ID=3, ADDR=0x100006b8, RESP=OKAY, Latency=6 cycles
UVM_INFO sv/axi4_monitor.sv(233) @ 556000: uvm_test_top.m_env.m_master_agent.m_monitor [axi4_monitor] Write Complete: ID=5, ADDR=0x100006d0, RESP=OKAY, Latency=11 cycles
UVM_INFO sv/axi4_monitor.sv(233) @ 572000: uvm_test_top.m_env.m_master_agent.m_monitor [axi4_monitor] Write Complete: ID=11, ADDR=0x100006fc, RESP=OKAY, Latency=15 cycles
UVM_INFO sv/axi4_monitor.sv(233) @ 587000: uvm_test_top.m_env.m_master_agent.m_monitor [axi4_monitor] Write Complete: ID=8, ADDR=0x10000738, RESP=OKAY, Latency=14 cycles
UVM_INFO sv/axi4_monitor.sv(233) @ 591000: uvm_test_top.m_env.m_master_agent.m_monitor [axi4_monitor] Write Complete: ID=1, ADDR=0x10000770, RESP=OKAY, Latency=3 cycles
UVM_INFO sv/axi4_monitor.sv(233) @ 609000: uvm_test_top.m_env.m_master_agent.m_monitor [axi4_monitor] Write Complete: ID=10, ADDR=0x1000077c, RESP=OKAY, Latency=15 cycles
UVM_INFO sv/axi4_monitor.sv(233) @ 617000: uvm_test_top.m_env.m_master_agent.m_monitor [axi4_monitor] Write Complete: ID=6, ADDR=0x100007b8, RESP=OKAY, Latency=7 cycles
UVM_INFO sv/axi4_monitor.sv(233) @ 629000: uvm_test_top.m_env.m_master_agent.m_monitor [axi4_monitor] Write Complete: ID=1, ADDR=0x100007d4, RESP=OKAY, Latency=11 cycles
UVM_INFO sv/axi4_monitor.sv(233) @ 633000: uvm_test_top.m_env.m_master_agent.m_monitor [axi4_monitor] Write Complete: ID=4, ADDR=0x10000800, RESP=OKAY, Latency=3 cycles
UVM_INFO sv/axi4_monitor.sv(233) @ 639000: uvm_test_top.m_env.m_master_agent.m_monitor [axi4_monitor] Write Complete: ID=14, ADDR=0x1000080c, RESP=OKAY, Latency=3 cycles
UVM_INFO sv/axi4_monitor.sv(233) @ 655000: uvm_test_top.m_env.m_master_agent.m_monitor [axi4_monitor] Write Complete: ID=11, ADDR=0x10000818, RESP=OKAY, Latency=13 cycles
UVM_INFO sv/axi4_monitor.sv(233) @ 659000: uvm_test_top.m_env.m_master_agent.m_monitor [axi4_monitor] Write Complete: ID=1, ADDR=0x1000084c, RESP=OKAY, Latency=3 cycles
UVM_INFO sv/axi4_monitor.sv(233) @ 670000: uvm_test_top.m_env.m_master_agent.m_monitor [axi4_monitor] Write Complete: ID=8, ADDR=0x10000858, RESP=OKAY, Latency=8 cycles
UVM_INFO sv/axi4_monitor.sv(233) @ 676000: uvm_test_top.m_env.m_master_agent.m_monitor [axi4_monitor] Write Complete: ID=6, ADDR=0x10000878, RESP=OKAY, Latency=5 cycles
UVM_INFO sv/axi4_monitor.sv(233) @ 679000: uvm_test_top.m_env.m_master_agent.m_monitor [axi4_monitor] Write Complete: ID=1, ADDR=0x1000088c, RESP=OKAY, Latency=2 cycles
UVM_INFO sv/axi4_monitor.sv(233) @ 695000: uvm_test_top.m_env.m_master_agent.m_monitor [axi4_monitor] Write Complete: ID=11, ADDR=0x10000894, RESP=OKAY, Latency=12 cycles
UVM_INFO sv/axi4_monitor.sv(233) @ 708000: uvm_test_top.m_env.m_master_agent.m_monitor [axi4_monitor] Write Complete: ID=8, ADDR=0x100008c4, RESP=OKAY, Latency=12 cycles
UVM_INFO sv/axi4_monitor.sv(233) @ 714000: uvm_test_top.m_env.m_master_agent.m_monitor [axi4_monitor] Write Complete: ID=8, ADDR=0x100008f4, RESP=OKAY, Latency=5 cycles
UVM_INFO sv/axi4_monitor.sv(233) @ 720000: uvm_test_top.m_env.m_master_agent.m_monitor [axi4_monitor] Write Complete: ID=4, ADDR=0x10000908, RESP=OKAY, Latency=5 cycles
UVM_INFO sv/axi4_monitor.sv(233) @ 724000: uvm_test_top.m_env.m_master_agent.m_monitor [axi4_monitor] Write Complete: ID=4, ADDR=0x1000091c, RESP=OKAY, Latency=3 cycles
UVM_INFO sv/axi4_monitor.sv(233) @ 733000: uvm_test_top.m_env.m_master_agent.m_monitor [axi4_monitor] Write Complete: ID=2, ADDR=0x10000928, RESP=OKAY, Latency=6 cycles
UVM_INFO sv/axi4_monitor.sv(233) @ 736000: uvm_test_top.m_env.m_master_agent.m_monitor [axi4_monitor] Write Complete: ID=14, ADDR=0x10000940, RESP=OKAY, Latency=2 cycles
UVM_INFO sv/axi4_monitor.sv(233) @ 744000: uvm_test_top.m_env.m_master_agent.m_monitor [axi4_monitor] Write Complete: ID=12, ADDR=0x10000948, RESP=OKAY, Latency=4 cycles
UVM_INFO sv/axi4_monitor.sv(233) @ 755000: uvm_test_top.m_env.m_master_agent.m_monitor [axi4_monitor] Write Complete: ID=11, ADDR=0x10000958, RESP=OKAY, Latency=9 cycles
UVM_INFO sv/axi4_monitor.sv(233) @ 761000: uvm_test_top.m_env.m_master_agent.m_monitor [axi4_monitor] Write Complete: ID=13, ADDR=0x1000097c, RESP=OKAY, Latency=5 cycles
UVM_INFO sv/axi4_monitor.sv(233) @ 767000: uvm_test_top.m_env.m_master_agent.m_monitor [axi4_monitor] Write Complete: ID=10, ADDR=0x10000990, RESP=OKAY, Latency=5 cycles
UVM_INFO sv/axi4_monitor.sv(233) @ 770000: uvm_test_top.m_env.m_master_agent.m_monitor [axi4_monitor] Write Complete: ID=2, ADDR=0x100009a4, RESP=OKAY, Latency=2 cycles
UVM_INFO sv/axi4_monitor.sv(233) @ 785000: uvm_test_top.m_env.m_master_agent.m_monitor [axi4_monitor] Write Complete: ID=9, ADDR=0x100009ac, RESP=OKAY, Latency=11 cycles
UVM_INFO sv/axi4_monitor.sv(233) @ 793000: uvm_test_top.m_env.m_master_agent.m_monitor [axi4_monitor] Write Complete: ID=6, ADDR=0x100009d8, RESP=OKAY, Latency=7 cycles
UVM_INFO sv/axi4_monitor.sv(233) @ 795000: uvm_test_top.m_env.m_master_agent.m_monitor [axi4_monitor] Write Complete: ID=12, ADDR=0x100009f4, RESP=OKAY, Latency=1 cycles
UVM_INFO sv/axi4_monitor.sv(233) @ 816000: uvm_test_top.m_env.m_master_agent.m_monitor [axi4_monitor] Write Complete: ID=13, ADDR=0x100009f8, RESP=OKAY, Latency=16 cycles
UVM_INFO sv/axi4_monitor.sv(233) @ 829000: uvm_test_top.m_env.m_master_agent.m_monitor [axi4_monitor] Write Complete: ID=7, ADDR=0x10000a38, RESP=OKAY, Latency=12 cycles
UVM_INFO sv/axi4_monitor.sv(233) @ 841000: uvm_test_top.m_env.m_master_agent.m_monitor [axi4_monitor] Write Complete: ID=3, ADDR=0x10000a68, RESP=OKAY, Latency=11 cycles
UVM_INFO sv/axi4_monitor.sv(233) @ 854000: uvm_test_top.m_env.m_master_agent.m_monitor [axi4_monitor] Write Complete: ID=6, ADDR=0x10000a94, RESP=OKAY, Latency=12 cycles
UVM_INFO sv/axi4_monitor.sv(233) @ 859000: uvm_test_top.m_env.m_master_agent.m_monitor [axi4_monitor] Write Complete: ID=14, ADDR=0x10000ac4, RESP=OKAY, Latency=4 cycles
UVM_INFO sv/axi4_monitor.sv(233) @ 867000: uvm_test_top.m_env.m_master_agent.m_monitor [axi4_monitor] Write Complete: ID=10, ADDR=0x10000ad4, RESP=OKAY, Latency=6 cycles
UVM_INFO sv/axi4_monitor.sv(233) @ 873000: uvm_test_top.m_env.m_master_agent.m_monitor [axi4_monitor] Write Complete: ID=1, ADDR=0x10000aec, RESP=OKAY, Latency=5 cycles
UVM_INFO sv/axi4_monitor.sv(233) @ 877000: uvm_test_top.m_env.m_master_agent.m_monitor [axi4_monitor] Write Complete: ID=9, ADDR=0x10000b00, RESP=OKAY, Latency=3 cycles
UVM_INFO sv/axi4_monitor.sv(233) @ 892000: uvm_test_top.m_env.m_master_agent.m_monitor [axi4_monitor] Write Complete: ID=8, ADDR=0x10000b0c, RESP=OKAY, Latency=12 cycles
UVM_INFO sv/axi4_monitor.sv(233) @ 897000: uvm_test_top.m_env.m_master_agent.m_monitor [axi4_monitor] Write Complete: ID=12, ADDR=0x10000b3c, RESP=OKAY, Latency=4 cycles
UVM_INFO sv/axi4_monitor.sv(233) @ 912000: uvm_test_top.m_env.m_master_agent.m_monitor [axi4_monitor] Write Complete: ID=6, ADDR=0x10000b4c, RESP=OKAY, Latency=13 cycles
UVM_INFO sv/axi4_monitor.sv(233) @ 919000: uvm_test_top.m_env.m_master_agent.m_monitor [axi4_monitor] Write Complete: ID=8, ADDR=0x10000b80, RESP=OKAY, Latency=6 cycles
UVM_INFO sv/axi4_monitor.sv(233) @ 936000: uvm_test_top.m_env.m_master_agent.m_monitor [axi4_monitor] Write Complete: ID=7, ADDR=0x10000b98, RESP=OKAY, Latency=16 cycles
UVM_INFO sv/axi4_monitor.sv(233) @ 945000: uvm_test_top.m_env.m_master_agent.m_monitor [axi4_monitor] Write Complete: ID=6, ADDR=0x10000bd8, RESP=OKAY, Latency=8 cycles
UVM_INFO sv/axi4_monitor.sv(233) @ 956000: uvm_test_top.m_env.m_master_agent.m_monitor [axi4_monitor] Write Complete: ID=4, ADDR=0x10000bf8, RESP=OKAY, Latency=10 cycles
UVM_INFO sv/seq_lib.sv(3411) @ 956000: uvm_test_top.m_env.m_master_agent.m_sequencer@@seq [axi4_data_first_sequence] Write progress: 100/500 transactions
UVM_INFO sv/axi4_monitor.sv(233) @ 961000: uvm_test_top.m_env.m_master_agent.m_monitor [axi4_monitor] Write Complete: ID=3, ADDR=0x10000c20, RESP=OKAY, Latency=4 cycles
UVM_INFO sv/axi4_monitor.sv(233) @ 977000: uvm_test_top.m_env.m_master_agent.m_monitor [axi4_monitor] Write Complete: ID=12, ADDR=0x10000c30, RESP=OKAY, Latency=14 cycles
UVM_INFO sv/axi4_monitor.sv(233) @ 981000: uvm_test_top.m_env.m_master_agent.m_monitor [axi4_monitor] Write Complete: ID=10, ADDR=0x10000c68, RESP=OKAY, Latency=3 cycles
UVM_INFO sv/axi4_monitor.sv(233) @ 996000: uvm_test_top.m_env.m_master_agent.m_monitor [axi4_monitor] Write Complete: ID=11, ADDR=0x10000c74, RESP=OKAY, Latency=12 cycles
UVM_INFO sv/axi4_monitor.sv(233) @ 1002000: uvm_test_top.m_env.m_master_agent.m_monitor [axi4_monitor] Write Complete: ID=0, ADDR=0x10000ca4, RESP=OKAY, Latency=5 cycles
UVM_INFO sv/axi4_monitor.sv(233) @ 1004000: uvm_test_top.m_env.m_master_agent.m_monitor [axi4_monitor] Write Complete: ID=13, ADDR=0x10000cb8, RESP=OKAY, Latency=1 cycles
UVM_INFO sv/axi4_monitor.sv(233) @ 1021000: uvm_test_top.m_env.m_master_agent.m_monitor [axi4_monitor] Write Complete: ID=10, ADDR=0x10000cbc, RESP=OKAY, Latency=12 cycles
UVM_INFO sv/axi4_monitor.sv(233) @ 1032000: uvm_test_top.m_env.m_master_agent.m_monitor [axi4_monitor] Write Complete: ID=15, ADDR=0x10000cec, RESP=OKAY, Latency=10 cycles
UVM_INFO sv/axi4_monitor.sv(233) @ 1049000: uvm_test_top.m_env.m_master_agent.m_monitor [axi4_monitor] Write Complete: ID=14, ADDR=0x10000d14, RESP=OKAY, Latency=16 cycles
UVM_INFO sv/axi4_monitor.sv(233) @ 1063000: uvm_test_top.m_env.m_master_agent.m_monitor [axi4_monitor] Write Complete: ID=3, ADDR=0x10000d54, RESP=OKAY, Latency=13 cycles
UVM_INFO sv/axi4_monitor.sv(233) @ 1080000: uvm_test_top.m_env.m_master_agent.m_monitor [axi4_monitor] Write Complete: ID=10, ADDR=0x10000d88, RESP=OKAY, Latency=16 cycles
